<?xml version="1.0" encoding="UTF-8"?>
<svg width="24px" height="24px" viewBox="0 0 24 24" version="1.1" xmlns="http://www.w3.org/2000/svg"
     xmlns:xlink="http://www.w3.org/1999/xlink">
    <!-- Generator: Sketch 50.2 (55047) - http://www.bohemiancoding.com/sketch -->
    <title>Stockholm-icons / Media / DVD</title>
    <desc>Created with Sketch.</desc>
    <defs></defs>
    <g id="Stockholm-icons-/-Media-/-DVD" stroke="none" stroke-width="1" fill="none" fill-rule="evenodd">
        <rect id="bound" x="0" y="0" width="24" height="24"></rect>
        <circle id="Combined-Shape" fill="#000000" opacity="0.3" cx="12" cy="12" r="9"></circle>
        <path
            d="M11.1582329,15.8732969 L15.1507272,12.3908445 C15.3588289,12.2093278 15.3803803,11.8934798 15.1988637,11.6853781 C15.1842721,11.6686494 15.1685826,11.652911 15.1518994,11.6382673 L11.1594051,8.13385466 C10.9518699,7.95169059 10.6359562,7.97225796 10.4537922,8.17979317 C10.3737213,8.27101604 10.3295679,8.388251 10.3295679,8.5096304 L10.3295679,15.4964955 C10.3295679,15.7726378 10.5534255,15.9964955 10.8295679,15.9964955 C10.950411,15.9964955 11.0671652,15.9527307 11.1582329,15.8732969 Z"
            id="Path-10" fill="#000000"></path>
    </g>
</svg>
