<?xml version="1.0" encoding="UTF-8"?>
<svg width="24px" height="24px" viewBox="0 0 24 24" version="1.1" xmlns="http://www.w3.org/2000/svg"
     xmlns:xlink="http://www.w3.org/1999/xlink">
    <!-- Generator: Sketch 50.2 (55047) - http://www.bohemiancoding.com/sketch -->
    <title>Stockholm-icons / Cooking / Baking-glove</title>
    <desc>Created with Sketch.</desc>
    <defs></defs>
    <g id="Stockholm-icons-/-Cooking-/-Baking-glove" stroke="none" stroke-width="1" fill="none" fill-rule="evenodd">
        <rect id="bound" x="0" y="0" width="24" height="24"></rect>
        <path
            d="M7.03587629,17.2664036 L2.54094808,14.2345363 C1.62521847,13.6168689 1.38359132,12.373805 2.00125875,11.4580753 C2.61892617,10.5423457 3.86199008,10.3007186 4.7777197,10.918386 L7,12.417333 L7,8 C7,4.6862915 9.6862915,2 13,2 C16.3137085,2 19,4.6862915 19,8 L19,17 C19,17.5522847 18.5522847,18 18,18 L8,18 C7.53996718,18 7.15248755,17.6893628 7.03587629,17.2664036 Z"
            id="Combined-Shape" fill="#000000"></path>
        <rect id="Rectangle-2" fill="#000000" opacity="0.3" x="6" y="20" width="14" height="2" rx="1"></rect>
    </g>
</svg>
