<?xml version="1.0" encoding="UTF-8"?>
<svg width="24px" height="24px" viewBox="0 0 24 24" version="1.1" xmlns="http://www.w3.org/2000/svg"
     xmlns:xlink="http://www.w3.org/1999/xlink">
    <!-- Generator: Sketch 50.2 (55047) - http://www.bohemiancoding.com/sketch -->
    <title>Stockholm-icons / Clothes / Panties</title>
    <desc>Created with Sketch.</desc>
    <defs></defs>
    <g id="Stockholm-icons-/-Clothes-/-Panties" stroke="none" stroke-width="1" fill="none" fill-rule="evenodd">
        <polygon id="Shape" points="0 0 24 0 24 24 0 24"></polygon>
        <path
            d="M1,10 L1,9 C1,8.44771525 1.44771525,8 2,8 L22,8 C22.5522847,8 23,8.44771525 23,9 L23,10 C23,10.5522847 22.5522847,11 22,11 C17.9697469,11.4702731 14.7415524,14.8075677 14.1115543,19 L9.88844573,19 C9.25844756,14.8075677 6.03025312,11.4702731 2,11 C1.44771525,11 1,10.5522847 1,10 Z"
            id="Combined-Shape" fill="#000000"></path>
    </g>
</svg>
