<?xml version="1.0" encoding="UTF-8"?>
<svg width="24px" height="24px" viewBox="0 0 24 24" version="1.1" xmlns="http://www.w3.org/2000/svg"
     xmlns:xlink="http://www.w3.org/1999/xlink">
    <!-- Generator: Sketch 50.2 (55047) - http://www.bohemiancoding.com/sketch -->
    <title>Stockholm-icons / Food / French Bread</title>
    <desc>Created with Sketch.</desc>
    <defs></defs>
    <g id="Stockholm-icons-/-Food-/-French-Bread" stroke="none" stroke-width="1" fill="none" fill-rule="evenodd">
        <rect id="bound" x="0" y="0" width="24" height="24"></rect>
        <path
            d="M11.19545,6.19223206 C11.2941509,6.2658397 11.4081961,6.3223288 11.5343747,6.35613825 L14.8030431,7.23197532 C15.3365092,7.37491713 15.8848462,7.05833464 16.027788,6.52486854 C16.1707298,5.99140244 15.8541473,5.44306548 15.3206812,5.30012367 L13.2275533,4.73927173 C16.4954421,2.66182639 19.4878904,2.0173276 20.8388348,3.36827202 C22.7914562,5.32089348 20.5753788,10.7027958 15.8890873,15.3890873 C11.2027958,20.0753788 5.82089348,22.2914562 3.86827202,20.3388348 C2.62548725,19.09605 3.07141707,16.4640844 4.76814099,13.5064591 C4.7897653,13.5138626 4.81179025,13.5205819 4.83419784,13.526586 L7.73197532,14.3030431 C8.26544142,14.4459849 8.81377838,14.1294025 8.95672019,13.5959364 C9.099662,13.0624702 8.78307952,12.5141333 8.24961341,12.3711915 L5.9033479,11.7425115 C6.37500284,11.0805256 6.90175318,10.4129718 7.47909619,9.75078536 C7.49687425,9.7566253 7.51491726,9.76200524 7.53321544,9.76690822 L11.2675092,10.7675092 C11.8009753,10.910451 12.3493123,10.5938685 12.4922541,10.0604024 C12.6351959,9.52693634 12.3186134,8.97859939 11.7851473,8.83565757 L9.03862784,8.0997299 C9.74794411,7.4052623 10.4715898,6.76749233 11.19545,6.19223206 Z"
            id="Combined-Shape" fill="#000000"></path>
    </g>
</svg>
