<?xml version="1.0" encoding="UTF-8"?>
<svg width="24px" height="24px" viewBox="0 0 24 24" version="1.1" xmlns="http://www.w3.org/2000/svg"
     xmlns:xlink="http://www.w3.org/1999/xlink">
    <!-- Generator: Sketch 50.2 (55047) - http://www.bohemiancoding.com/sketch -->
    <title>Stockholm-icons / Map / Compass</title>
    <desc>Created with Sketch.</desc>
    <defs></defs>
    <g id="Stockholm-icons-/-Map-/-Compass" stroke="none" stroke-width="1" fill="none" fill-rule="evenodd">
        <rect id="bound" x="0" y="0" width="24" height="24"></rect>
        <path
            d="M12,21 C7.02943725,21 3,16.9705627 3,12 C3,7.02943725 7.02943725,3 12,3 C16.9705627,3 21,7.02943725 21,12 C21,16.9705627 16.9705627,21 12,21 Z M14.1654881,7.35483745 L9.61055177,10.3622525 C9.47921741,10.4489666 9.39637436,10.592455 9.38694497,10.7495509 L9.05991526,16.197949 C9.04337012,16.4735952 9.25341309,16.7104632 9.52905936,16.7270083 C9.63705011,16.7334903 9.74423017,16.7047714 9.83451193,16.6451626 L14.3894482,13.6377475 C14.5207826,13.5510334 14.6036256,13.407545 14.613055,13.2504491 L14.9400847,7.80205104 C14.9566299,7.52640477 14.7465869,7.28953682 14.4709406,7.27299168 C14.3629499,7.26650974 14.2557698,7.29522855 14.1654881,7.35483745 Z"
            id="Combined-Shape" fill="#000000"></path>
    </g>
</svg>
