<?xml version="1.0" encoding="UTF-8"?>
<svg width="24px" height="24px" viewBox="0 0 24 24" version="1.1" xmlns="http://www.w3.org/2000/svg"
     xmlns:xlink="http://www.w3.org/1999/xlink">
    <!-- Generator: Sketch 50.2 (55047) - http://www.bohemiancoding.com/sketch -->
    <title>Stockholm-icons / Files / User-folder</title>
    <desc>Created with Sketch.</desc>
    <defs></defs>
    <g id="Stockholm-icons-/-Files-/-User-folder" stroke="none" stroke-width="1" fill="none" fill-rule="evenodd">
        <rect id="bound" x="0" y="0" width="24" height="24"></rect>
        <path
            d="M3.5,21 L20.5,21 C21.3284271,21 22,20.3284271 22,19.5 L22,8.5 C22,7.67157288 21.3284271,7 20.5,7 L10,7 L7.43933983,4.43933983 C7.15803526,4.15803526 6.77650439,4 6.37867966,4 L3.5,4 C2.67157288,4 2,4.67157288 2,5.5 L2,19.5 C2,20.3284271 2.67157288,21 3.5,21 Z"
            id="Combined-Shape" fill="#000000" opacity="0.3"></path>
        <path
            d="M12,13 C10.8954305,13 10,12.1045695 10,11 C10,9.8954305 10.8954305,9 12,9 C13.1045695,9 14,9.8954305 14,11 C14,12.1045695 13.1045695,13 12,13 Z"
            id="Mask" fill="#000000" opacity="0.3"></path>
        <path
            d="M7.00036205,18.4995035 C7.21569918,15.5165724 9.36772908,14 11.9907452,14 C14.6506758,14 16.8360465,15.4332455 16.9988413,18.5 C17.0053266,18.6221713 16.9988413,19 16.5815,19 C14.5228466,19 11.463736,19 7.4041679,19 C7.26484009,19 6.98863236,18.6619875 7.00036205,18.4995035 Z"
            id="Mask-Copy" fill="#000000" opacity="0.3"></path>
    </g>
</svg>
