<?xml version="1.0" encoding="UTF-8"?>
<svg width="24px" height="24px" viewBox="0 0 24 24" version="1.1" xmlns="http://www.w3.org/2000/svg"
     xmlns:xlink="http://www.w3.org/1999/xlink">
    <!-- Generator: Sketch 50.2 (55047) - http://www.bohemiancoding.com/sketch -->
    <title>Stockholm-icons / Devices / Router2</title>
    <desc>Created with Sketch.</desc>
    <defs></defs>
    <g id="Stockholm-icons-/-Devices-/-Router2" stroke="none" stroke-width="1" fill="none" fill-rule="evenodd">
        <rect id="bound" x="0" y="0" width="24" height="24"></rect>
        <rect id="Combined-Shape" fill="#000000" x="3" y="13" width="18" height="7" rx="2"></rect>
        <path
            d="M17.4029496,9.54910207 L15.8599014,10.8215022 C14.9149052,9.67549895 13.5137472,9 12,9 C10.4912085,9 9.09418404,9.67104182 8.14910121,10.8106159 L6.60963188,9.53388797 C7.93073905,7.94090645 9.88958759,7 12,7 C14.1173586,7 16.0819686,7.94713944 17.4029496,9.54910207 Z M20.4681628,6.9788888 L18.929169,8.25618985 C17.2286725,6.20729644 14.7140097,5 12,5 C9.28974232,5 6.77820732,6.20393339 5.07766256,8.24796852 L3.54017812,6.96885102 C5.61676443,4.47281829 8.68922234,3 12,3 C15.3153667,3 18.3916375,4.47692603 20.4681628,6.9788888 Z"
            id="Combined-Shape" fill="#000000" fill-rule="nonzero" opacity="0.3"></path>
    </g>
</svg>
