<?xml version="1.0" encoding="UTF-8"?>
<svg width="24px" height="24px" viewBox="0 0 24 24" version="1.1" xmlns="http://www.w3.org/2000/svg"
     xmlns:xlink="http://www.w3.org/1999/xlink">
    <!-- Generator: Sketch 50.2 (55047) - http://www.bohemiancoding.com/sketch -->
    <title>Stockholm-icons / Code / Left-circle</title>
    <desc>Created with Sketch.</desc>
    <defs></defs>
    <g id="Stockholm-icons-/-Code-/-Left-circle" stroke="none" stroke-width="1" fill="none" fill-rule="evenodd">
        <rect id="bound" x="0" y="0" width="24" height="24"></rect>
        <circle id="Oval-5" fill="#000000" opacity="0.3" cx="12" cy="12" r="10"></circle>
        <path
            d="M6.96323356,15.1775211 C6.62849853,15.5122561 6.08578582,15.5122561 5.75105079,15.1775211 C5.41631576,14.842786 5.41631576,14.3000733 5.75105079,13.9653383 L10.8939067,8.82248234 C11.2184029,8.49798619 11.7409054,8.4866328 12.0791905,8.79672747 L17.2220465,13.5110121 C17.5710056,13.8308912 17.5945795,14.3730917 17.2747004,14.7220508 C16.9548212,15.0710098 16.4126207,15.0945838 16.0636617,14.7747046 L11.5257773,10.6149773 L6.96323356,15.1775211 Z"
            id="Path-94" fill="#000000" fill-rule="nonzero"
            transform="translate(11.500001, 12.000001) scale(-1, 1) rotate(-270.000000) translate(-11.500001, -12.000001) "></path>
    </g>
</svg>
