<?xml version="1.0" encoding="UTF-8"?>
<svg width="24px" height="24px" viewBox="0 0 24 24" version="1.1" xmlns="http://www.w3.org/2000/svg"
     xmlns:xlink="http://www.w3.org/1999/xlink">
    <!-- Generator: Sketch 50.2 (55047) - http://www.bohemiancoding.com/sketch -->
    <title>Stockholm-icons / Code / Option</title>
    <desc>Created with Sketch.</desc>
    <defs></defs>
    <g id="Stockholm-icons-/-Code-/-Option" stroke="none" stroke-width="1" fill="none" fill-rule="evenodd">
        <rect id="bound" x="0" y="0" width="24" height="24"></rect>
        <rect id="Rectangle-173" fill="#000000" opacity="0.3" x="12" y="7" width="10" height="2" rx="1"></rect>
        <path
            d="M2,9 C1.44771525,9 1,8.55228475 1,8 C1,7.44771525 1.44771525,7 2,7 L7.35012691,7 C8.14050434,7 8.85674733,7.46546704 9.17775001,8.18772307 L12.6498731,16 L22,16 C22.5522847,16 23,16.4477153 23,17 C23,17.5522847 22.5522847,18 22,18 L12.6498731,18 C11.8594957,18 11.1432527,17.534533 10.82225,16.8122769 L7.35012691,9 L2,9 Z"
            id="Path-89" fill="#000000" fill-rule="nonzero"></path>
    </g>
</svg>
