<?xml version="1.0" encoding="iso-8859-1"?>
<!-- Generator: Adobe Illustrator 19.0.0, SVG Export Plug-In . SVG Version: 6.00 Build 0)  -->
<svg xmlns="http://www.w3.org/2000/svg" xmlns:xlink="http://www.w3.org/1999/xlink" version="1.1" id="Layer_1" x="0px"
     y="0px" viewBox="0 0 512 512" style="enable-background:new 0 0 512 512;" xml:space="preserve">
<rect style="fill:#F5F5F5;" width="512" height="256"/>
    <rect y="256" style="fill:#73AF00;" width="512" height="256"/>
    <g>
	<path style="fill:#FF4B55;"
          d="M389.491,186.437c0,0,6.102,16.737,6.625,17.609l0.697-1.395l4.184-21.793l10.809-20.224   l-3.138,0.349l-24.583,11.856c0,0-14.645,16.04-14.819,16.563S389.491,186.437,389.491,186.437z"/>
        <path style="fill:#FF4B55;"
              d="M398.15,346.486c-0.814-0.116-12.902,0.464-12.902,0.464l-3.952-13.25l-2.267-25.047l4.271-1.133   l5.318,2.528l1.918-10.025c0,0-4.62-5.056-5.492-5.405s-11.332-2.702-11.332-2.702l-14.035-18.568l16.737-9.328l13.076-17.958   l3.138-16.214l-2.615-13.425l-5.946-9.957c-0.088-0.284-0.156-0.504-0.156-0.504c-0.042-0.052-0.189-0.154-0.283-0.23l-1.112-1.862   l-0.017,1.086c-2.579-1.611-7.857-4.413-9.223-5.096c-1.743-0.872-10.984-2.441-12.902-1.046   c-1.918,1.395-10.809,5.579-12.379,8.543s-2.615,13.599-2.615,13.599s2.615,5.928,5.928,7.323   c3.313,1.395,9.763,2.964,10.809,2.615c0.903-0.301,11.137-3.325,13.929-4.597l1.239,2.505l-0.523,7.148l-5.753,4.01l-10.635,4.184   c0,0-16.214-4.533-16.912-4.359c-0.697,0.174-20.747-5.928-20.747-5.928l-18.829-4.359l6.276-3.138l17.086-1.22   c0,0,3.313-19.352,3.836-19.701s11.681-9.24,11.681-9.24l9.24-2.266l-5.579-23.653l8.369-25.803l-21.851,6.276l-34.637,8.601   l-22.084-1.395l-19.527,6.276l-12.553,11.391l-7.206,9.763l-2.557,15.575l-1.627,20.689l-6.044,11.39l-6.849,5.368   c-0.768-2.027-4.368-9.784-4.368-9.784l8.717-2.092l-2.266-5.753l-6.102-4.533l1.918-6.974l6.974,3.836l1.918,1.395l1.22-7.148   l-7.671-10.809l1.22-5.405l9.24,4.882l-1.046-12.553l-8.194-5.056l0.523-6.974l8.95,2.673l-0.93-6.625l-9.763-7.09l9.531-15.342   l-11.623,0.582l-0.93-4.998l-3.022-1.163c0,0-16.156,6.858-17.318,6.625c-1.162-0.232-14.064-1.976-15.575-1.627   s-6.857,1.743-6.857,1.743l-1.511,5.928l-9.88-1.627l-14.645-1.22l-4.417,5.405l6.974,2.79c0,0-1.627,12.32-1.162,13.25   c0.465,0.93,4.649,6.974,4.649,6.974l-9.531,13.017l9.763,1.395l13.483-2.092l-0.465,3.255l17.9-1.86l-3.952,2.092l-5.114,15.342   l-14.878,30.22l-5.23,26.849l-8.369-8.717l-5.579-23.014l-8.369-22.665c0,0-1.743-6.974-2.79-7.148s-5.579-1.046-5.579-1.046   l-5.753,4.707l-7.323-1.046l-4.184,5.753l4.707,7.323c0,0-7.846,3.138-7.846,4.01s0.523,5.928,1.046,6.102   c0.523,0.174,12.379-0.174,12.379-0.174l7.148,12.727l-5.579,14.645l2.79,5.579l4.882,0.697l4.533-5.23l15.691,46.899   c0,0-1.22,6.102-2.092,6.625s-5.056,5.23-4.01,5.23s7.497,0.872,8.194,0.523s9.763-7.323,9.763-7.323s14.296-10.984,15.168-10.112   s14.471,9.24,14.471,9.24l-6.276,21.619l-14.819,21.619l-9.24-5.579l-6.625-9.415l-4.882,1.569l-1.743,2.964l0.697,6.276   c0,0-5.056,4.01-5.056,4.882s0.523,7.148,0.523,7.148s3.313,1.569,3.487,2.441s1.918,7.148,1.918,7.148l3.487,1.22l6.625-4.01   h10.984l6.799,1.046l14.471-4.533l21.096,1.046l-1.918-4.01c0,0-8.543-4.359-11.507-5.23c-2.964-0.872-5.928-1.569-5.928-1.569   l-1.22-6.102l20.747-24.583l7.671-1.569l2.615,6.451c0,0,8.601-2.092,8.601-2.79s0-8.136,0-8.834c0-0.697-1.86-6.509-1.86-6.509   s-0.025-0.214-0.062-0.533l6.571-1.095l22.781-10.925l8.02,9.647l9.996,4.765l-12.437,22.316l-10.693,7.207l-7.671-3.487   l-10.693-7.904l-4.184,2.557l0.93,7.903l-6.276-0.464l-2.79,5.579l4.649,6.741l-1.627,5.347c0,0,1.163,4.882,2.325,4.882   s8.136-2.557,8.136-2.557l20.457-1.627l14.878-4.882l15.575,1.163c0,0,3.022-10.461,2.325-10.461s-0.93-0.233-2.79-0.233   c-1.86,0-8.369,0.233-8.369,0.233l-0.233-2.325l5.114-9.298l19.759-16.505l5.811,1.163l2.092,3.022l5.812-4.417l-0.233-7.439   l-5.114-5.346l-5.114-6.044l1.627-9.066l8.833,4.184c0,0,13.948,9.763,15.11,10.229c1.163,0.464,28.128,7.438,28.128,7.438   l5.579,13.25l-2.79,20.922l-8.601-2.557l-8.136-10.461c0,0-2.325-1.163-3.487-0.93s-3.952,4.882-3.952,4.882l2.79,6.509   l-3.719,1.162l-3.487,2.325l-0.697,4.882l3.254,3.022c0,0,0,5.579,0,6.276s1.86,3.255,2.557,3.487s6.044,0.93,7.323,0.814   c1.278-0.116,10.809-4.069,10.809-4.069s17.899,0.349,18.364,0.233c0.465-0.116,15.924-3.487,15.924-3.487l8.717,1.395   c0,0,5.812-4.417,5.579-4.998S398.964,346.602,398.15,346.486z M364.734,220.608c-4.707,0.523-7.148,1.918-7.497-0.697   s-0.349-7.846,0.174-8.02s5.928-3.313,6.102-2.79c0.174,0.523,5.579,3.138,5.579,3.138l3.291,6.652   C370.647,219.814,367.968,220.249,364.734,220.608z"/>
        <path style="fill:#FF4B55;"
              d="M127.1,177.894c0,0,1.918-9.938,2.441-9.938s7.671-2.615,7.671-2.615l-21.27-13.773   c0,0,3.661,16.912,4.01,18.306C120.301,171.268,127.1,177.894,127.1,177.894z"/>
</g>
    <g>
	<path style="fill:#464655;"
          d="M181.202,157.441c0.074,0.017,0.498,0.112,1.147,0.24l-0.16,0.697   c-0.262,1.122,0.441,2.25,1.569,2.506c0.158,0.038,0.316,0.054,0.471,0.054c0.951,0,1.814-0.654,2.035-1.624l0.224-0.974   c1.507,0.187,3.166,0.331,4.769,0.331c1.354,0,2.661-0.098,3.787-0.36c1.125-0.262,1.828-1.384,1.566-2.506   c-0.262-1.128-1.376-1.847-2.509-1.569c-3.31,0.779-9.763-0.37-11.964-0.872c-1.103-0.262-2.245,0.441-2.506,1.569   C179.374,156.062,180.077,157.185,181.202,157.441z"/>
        <path style="fill:#464655;"
              d="M388.332,191.217l5.273,16.098c0.283,0.861,1.087,1.438,1.989,1.438c0.03,0,0.06,0,0.093,0   c0.937-0.044,1.733-0.703,1.945-1.618c3.857-16.53,11.578-42.677,17.034-46.948c0.76-0.594,1.013-1.624,0.618-2.506   c-0.392-0.872-1.327-1.373-2.286-1.199c-1.117,0.207-27.582,5.361-45.995,32.979c-0.471,0.708-0.469,1.629,0.005,2.332   c0.477,0.703,1.327,1.03,2.16,0.877l15.333-3.17c-2.148,5.177-3.516,9.73-3.99,11.403c-6.982-4.25-14.856-5.006-20.317-3.59   c-6.233,1.634-11.471,5.606-14.375,10.902c-2.226,4.059-2.814,8.516-1.615,12.226c1.392,4.31,5.108,9.671,11.365,11.779   c4.145,1.408,10.845,1.72,19.676-3.746c0,0.042,0.006,0.081,0.006,0.123c-0.06,3.487-1.85,6.331-5.326,8.461   c-6.908,4.233-19.023,4.517-26.996,0.616c-10.514-5.134-26.324-8.055-35.156-9.381c5.477-1.745,12.097-2.238,20.053-0.415   c0.108,0.027,0.212-0.015,0.321-0.007c0.053,0.004,0.094,0.061,0.147,0.061c0.058,0,0.102-0.062,0.161-0.067   c0.482-0.038,0.947-0.185,1.299-0.527c0.005-0.005,0.006-0.013,0.011-0.018c0.002-0.002,0.006-0.001,0.006-0.001   c0.01-0.01,0.006-0.024,0.015-0.032c0.337-0.351,0.487-0.802,0.528-1.275c0.01-0.113,0.023-0.2,0.015-0.312   c-0.006-0.095,0.033-0.185,0.014-0.279c-0.025-0.12-2.343-11.997,4.04-20.181c3.836-4.92,10.109-7.606,18.647-7.993   c0.134-0.006,0.246-0.083,0.375-0.114c0.185-0.044,0.368-0.07,0.536-0.163c0.152-0.084,0.259-0.218,0.386-0.338   c0.106-0.099,0.237-0.159,0.324-0.283c0.018-0.026,0.02-0.057,0.037-0.084c0.015-0.023,0.042-0.033,0.056-0.057   c0.038-0.065,0.029-0.142,0.06-0.209c0.094-0.209,0.16-0.419,0.182-0.639c0.011-0.106,0.011-0.203,0.005-0.309   c-0.012-0.236-0.066-0.458-0.155-0.677c-0.022-0.055-0.012-0.117-0.039-0.17c-0.169-0.332-16.585-33.158,10.161-55.077   c0.869-0.714,1.019-1.989,0.341-2.882c-0.681-0.888-1.942-1.095-2.869-0.447c-26.408,18.541-62.906,20.54-77.371,20.54   c-25.8,0-42.102,9.714-49.838,29.693c-0.804,2.076-1.372,4.538-1.85,7.174c0.258-3.696-0.418-6.938-2.086-9.648   c-2.381-3.864-6.022-5.482-7.66-6.044c0.001-0.948-0.006-1.887-0.035-2.809c2.826-0.435,6.18,1.758,7.286,2.69   c0.387,0.327,0.869,0.501,1.357,0.501c0.321,0,0.646-0.076,0.943-0.229c0.752-0.381,1.204-1.171,1.144-2.01   c-0.684-9.729-7.284-14.457-11.812-16.057c3.992-3.173,8.247-8.363,10.853-16.829c0.251-0.817-0.019-1.705-0.684-2.239   c-0.665-0.539-1.591-0.621-2.332-0.207c-0.07,0.039-4.33,2.345-10.732,4.247l0.585-7.603c0.057-0.768-0.311-1.509-0.964-1.923   c-0.651-0.42-1.485-0.436-2.152-0.054c-0.108,0.059-10.82,6.073-21.744,9.246c-8.246-2.074-18.978-3.686-23.046,0.55   c-0.981,1.019-1.893,2.675-1.667,5.241c-7.02-1.466-23.136-3.863-32.919,2.463c-0.771,0.496-1.125,1.438-0.877,2.321   c0.251,0.883,1.046,1.504,1.964,1.526c3.106,0.076,7.906,0.79,9.908,2.114c-0.883,2.381-2.343,7.426-1.068,12.291   c-4.246,1.23-8.701,1.421-14.118-1.511l4.723-1.159c0.847-0.207,1.476-0.921,1.58-1.787c0.101-0.866-0.346-1.705-1.12-2.103   c-0.12-0.065-12.03-6.26-21.935-16.672c-0.561-0.583-1.414-0.795-2.196-0.534c-0.774,0.267-1.321,0.959-1.4,1.771   c-0.084,0.839-1.861,20.633,13.171,32.368c0.376,0.289,0.831,0.441,1.289,0.441c0.286,0,0.572-0.06,0.844-0.18   c0.703-0.311,1.182-0.981,1.242-1.749l0.583-7.476c7.499,4.49,13.708,4.06,19.034,2.442c0.667,1.019,1.517,1.989,2.588,2.877   c0.172,0.143,0.408,0.298,0.647,0.454c-3.423,8.014-10.221,10.079-10.511,10.159c-0.847,0.245-1.455,0.992-1.515,1.869   c-0.063,0.877,0.428,1.7,1.231,2.059c0.507,0.223,11.455,4.958,23.727,0.588l-0.193,1.4c-0.082,0.588,0.093,1.188,0.482,1.64   c0.387,0.458,0.951,0.725,1.547,0.736c0.052,0,0.191,0.005,0.409,0.005c1.409,0,6.083-0.107,11.382-1.324   c-0.801,7.485-5.361,16.408-10.213,25.82c-6.568,12.752-13.888,27.131-13.771,41.654c-2.506-3.244-5.626-8.302-7.17-15.017   c-0.534-2.332-0.888-4.424-1.21-6.336c-0.782-4.626-1.457-8.625-4.192-12.384c-3.092-4.25-7.464-13.735-7.273-18.917   c0.18-4.789-2.958-7.606-6.146-8.276c-0.229-0.048-0.447,0.012-0.675-0.015c-0.755-1.521-2.8-4.434-7.497-4.769   c-1.131-0.153-2.155,0.785-2.237,1.94c-0.082,1.15,0.785,2.152,1.937,2.234c1.638,0.116,2.655,0.741,3.28,1.366   c-1.534,0.789-2.778,2.106-3.643,3.791c-2.8-1.614-5.631-2.019-7.796-1.523c-0.56,0.127-0.985,0.43-1.469,0.659   c-1.417-0.74-5.19-2.147-9.739,0.746c-0.975,0.616-1.264,1.912-0.643,2.888c0.398,0.627,1.076,0.97,1.768,0.97   c0.381,0,0.771-0.104,1.12-0.327c1.624-1.031,3.011-1.166,4.028-1.037c-0.746,1.381-1.169,2.904-1.097,4.322   c0.144,2.817,1.773,5.002,4.291,5.928c-3.002,0.572-5.546,1.967-6.906,3.852c-0.219,0.305-0.265,0.654-0.422,0.977   c-1.912,0.197-4.853,1.485-6.712,5.414c-0.496,1.041-0.049,2.288,0.994,2.784c0.291,0.136,0.594,0.202,0.894,0.202   c0.785,0,1.536-0.441,1.893-1.199c0.829-1.75,1.803-2.443,2.531-2.76c1.987,6.554,8.448,5.061,12.345,4.149l1.561-0.354   c2.185-0.436,6.037,5.944,7.072,10.085c0.719,2.877-0.512,6.396-4.391,12.553c-2.356,3.748-1.678,6.462-0.692,8.08   c0.019,0.033,0.052,0.05,0.072,0.082c-0.625,0.187-1.397,0.323-2.439,0.185c-1.125-0.229-2.201,0.643-2.356,1.787   c-0.155,1.144,0.646,2.201,1.79,2.354c0.534,0.076,1.038,0.109,1.515,0.109c2.433,0,4.054-0.831,5.028-1.511   c1.36,0.582,2.761,0.802,3.795,0.721c2.885-0.24,4.838-2.768,6.159-5.906c3.849,21.221,12.695,40.928,14.231,44.251   c-0.311,7.519-8.426,9.284-8.777,9.36c-0.902,0.185-1.577,0.937-1.662,1.858c-0.084,0.915,0.436,1.776,1.286,2.125   c3.531,1.444,6.62,2.021,9.303,2.021c8.276,0,12.651-5.459,14.029-7.562c6.112-2.129,13.277-7.113,16.074-9.152   c4.664,3.494,8.541,5.432,9.837,6.038c-2.254,22.184-15.259,37.169-19.065,41.099c-2.577-1.477-8.268-5.121-10.147-9.464   c-1.778-4.104-5.075-5.26-7.764-5.019c-0.903-1.167-2.929-3.342-5.772-3.654c-1.397-0.147-3.517,0.109-5.672,2.267   c-0.817,0.817-0.817,2.141,0,2.958c0.815,0.817,2.138,0.823,2.958,0.005c1.182-1.182,1.986-1.111,2.247-1.073   c0.805,0.086,1.584,0.669,2.2,1.269c-1.525,1.299-2.469,3.119-2.317,5.105c0.108,1.395,0.631,2.707,1.368,3.928   c-1.524,0.793-3.36,2.094-4.569,4.152c-0.044,0.074-0.092,0.191-0.138,0.272c-2.498,0.159-6.993,1.923-7.694,7.742   c-0.136,1.15,0.681,2.19,1.828,2.326c0.087,0.011,0.169,0.016,0.253,0.016c1.043,0,1.948-0.779,2.076-1.842   c0.25-2.084,1.26-3.087,2.206-3.588c-0.024,0.859,0.047,1.752,0.355,2.684c0.722,2.196,2.429,3.977,4.977,5.361   c-0.27,0.859-0.444,1.772-0.468,2.761c-1.345,0.678-3.329,1.944-4.345,4.099c-0.76,1.607-0.806,3.405-0.139,5.203   c0.313,0.844,1.111,1.362,1.961,1.362c0.242,0,0.49-0.044,0.73-0.131c1.084-0.403,1.635-1.607,1.231-2.691   c-0.365-0.975-0.177-1.58-0.003-1.951c0.309-0.659,0.923-1.212,1.551-1.643c0.776,1.392,1.948,2.454,3.516,2.972   c0.716,0.234,1.46,0.349,2.207,0.349c2.49,0,5.012-1.259,6.631-3.449c1.937-2.626,5.726-1.122,5.971-1.019   c7.922,2.877,18.625,0.708,25.103-2.931c3.593-2.021,16.252-0.932,23.392,0.24c0.558,0.076,1.152-0.06,1.613-0.403   c0.458-0.354,0.749-0.877,0.806-1.455c0.722-7.224-8.625-9.142-16.135-10.684c-2.046-0.42-3.994-0.817-5.83-1.602   c-0.733-4.239,10.281-19.668,20.774-27.383c2.572-1.891,4.642-2.648,5.68-2.092c1.482,0.812,1.953,4.593,1.803,6.892   c-0.004,0.061,0.031,0.113,0.032,0.173c0.003,0.229,0.045,0.447,0.125,0.669c0.034,0.093,0.059,0.181,0.106,0.268   c0.029,0.056,0.032,0.117,0.067,0.17c0.12,0.184,0.282,0.319,0.443,0.451c0.032,0.027,0.043,0.069,0.077,0.094   c0.007,0.005,0.018,0.005,0.018,0.005c0.271,0.193,0.57,0.307,0.884,0.359c0.081,0.013,0.156,0.001,0.238,0.004   c0.234,0.012,0.46-0.012,0.69-0.082c0.054-0.015,0.112,0.001,0.165-0.019c0.17-0.066,0.354-0.16,0.528-0.23   c1.116-0.571,3.007,0.067,4.33,0.744c-0.247,0.762-0.395,1.56-0.325,2.423c0.087,1.079,0.422,2.152,0.945,3.182   c-2.073-0.234-4.013,0-5.416,1.079c-0.501,0.384-0.896,0.868-1.295,1.346c-2.945,0.292-6.628,2.147-7.504,6.533   c-0.226,1.133,0.507,2.234,1.64,2.463c0.139,0.027,0.278,0.038,0.414,0.038c0.975,0,1.85-0.686,2.049-1.684   c0.21-1.047,0.746-1.681,1.336-2.158c-0.018,0.763,0.064,1.52,0.29,2.234c0.41,1.294,1.515,3.225,4.327,4.303   c-0.253,0.43-0.471,0.889-0.664,1.357c-2.094,0.674-5.248,2.845-5.248,7.454c0,1.155,0.937,2.092,2.092,2.092   s2.092-0.937,2.092-2.092c0-0.815,0.202-1.404,0.468-1.893c0.068,0.302,0.115,0.613,0.224,0.896   c0.507,1.324,2.029,3.808,6.296,3.808c1.406,0,3.106-0.267,5.165-0.937c4.993-1.618,8.532-1.787,11.954-1.956   c4.092-0.196,7.957-0.387,13.387-2.904c7.824-3.634,17.514-2.403,22.591-1.34c2.751,0.567,5.443-0.785,6.552-3.307   c0.381-0.859,0.63-1.613,0.893-2.378c2.367,0.284,2.857,2.585,2.921,3.091c0.117,1.068,1.022,1.863,2.076,1.863   c0.071,0,0.144-0.005,0.218-0.011c1.15-0.12,1.986-1.15,1.866-2.299c-0.226-2.186-1.846-6.108-6.181-6.789   c0.055-1.484-0.234-2.705-0.961-3.606c-0.795-0.981-2.378-2.01-5.478-1.373c-3.209,0.665-4.686,0.795-5.35,0.736   c0.101-0.409,0.338-1.133,0.891-2.37c1.869-4.206,14.277-15.299,22.403-21.94c1.959-0.441,4.443-0.469,5.018,0.185   c0.202,0.223,0.202,0.992-0.256,2.207c-0.327,0.861-0.052,1.831,0.673,2.392c0.722,0.561,1.73,0.588,2.482,0.065   c0.324-0.229,7.914-5.617,7.761-12.182c-0.079-3.318-2.013-6.2-5.751-8.565c-3.168-2-4.988-4.315-5.413-6.876   c-0.444-2.678,0.698-5.055,1.461-6.32c2.997,1.436,6.005,3.294,9,5.77c17.668,14.608,32.702,16.935,40.824,16.897   c1.703,3.763,6.706,16.605,2.436,29.795c-2.272-0.403-6.734-1.852-9.796-6.957c-2.977-4.958-6.549-6.2-9.025-6.364   c-3.849-0.3-7.933,1.891-11.142,5.901c-0.686,0.861-0.591,2.103,0.215,2.844c0.809,0.746,2.059,0.741,2.852-0.011   c0.534-0.507,1.528-1.122,1.956-0.79l0.433,1.21c0.232,0.67,0.469,1.346,0.752,2c-1.664,0.245-3.266,0.926-4.517,2.343   c-0.824,0.933-1.343,2.012-1.718,3.122c-3.832,0.685-5.92,3.592-6.008,3.727c-0.637,0.953-0.379,2.234,0.569,2.877   c0.357,0.245,0.765,0.365,1.169,0.365c0.667,0,1.324-0.316,1.733-0.904c0.04-0.054,0.813-1.103,2.196-1.689   c0.174,0.788,0.455,1.551,0.885,2.245c0.722,1.164,1.747,1.943,2.91,2.358c-0.157,0.605-0.292,1.264-0.378,1.975   c-0.045,0.015-0.091,0.008-0.135,0.026c-5.01,2.109-3.988,8.336-2.749,11.332c0.335,0.806,1.111,1.291,1.931,1.291   c0.267,0,0.537-0.054,0.795-0.158c1.068-0.441,1.577-1.662,1.141-2.73c-0.015-0.039-1.191-3.115-0.435-4.867   c0.02,0.047,0.025,0.097,0.046,0.143c0.866,1.956,2.536,3.351,4.827,4.037c1.128,0.338,2.207,0.479,3.239,0.479   c3.424,0,6.331-1.585,8.777-2.926c1.904-1.041,3.705-1.994,5.124-1.896c1.032,0.098,2.215,0.283,3.511,0.485   c4.893,0.763,11.599,1.798,18.255-0.343c1.239-0.398,2.362-0.785,3.389-1.139c5.407-1.852,7.429-2.544,10.733-0.665   c4.002,2.288,9.161,0.752,11.82-2.054c0.833-0.88,1.313-1.859,1.571-2.853c1.365,0.543,2.47,1.131,2.649,1.458   c-0.39,1.09,0.177,2.283,1.267,2.675c0.232,0.082,0.469,0.12,0.703,0.12c0.858,0,1.664-0.534,1.97-1.389   c0.392-1.095,0.297-2.223-0.27-3.258c-1.383-2.518-5.432-3.87-7.458-4.407c-3.348-4.55-8.452-5.967-16.885-4.632   c-0.335,0.049-0.597-0.011-0.885-0.251c-3.078-2.49-3.757-15.424-4.16-23.144c-0.324-6.178-0.545-9.763-1.493-11.485   c0.485-0.398,3.133-0.447,4.784,0.757c0.795,0.588,0.874,1.117,0.684,1.716c-0.033,0.087-0.063,0.169-0.093,0.251   c-0.409,1.068,0.12,2.272,1.185,2.691c1.065,0.409,2.272-0.093,2.705-1.155c0.063-0.147,0.117-0.3,0.166-0.447   c0.746-2.119,3.803-11.719,0.202-17.8c-1.618-2.73-4.252-4.359-7.835-4.844c-9.126-1.23-16.08-7.061-20.757-17.222   c7.085-2.49,27.944-11.944,31.844-38.04c2.591-17.347-3.626-27.062-9.3-32.156c-0.271-0.244-0.565-0.429-0.841-0.659   c0.164-0.212,0.373-0.388,0.446-0.665C384.388,202.578,385.822,197.301,388.332,191.217z M373.56,187.488   c11.924-15.517,26.547-22.425,34.455-25.215c-5.187,9.344-10.128,26.822-12.705,36.803l-4.353-13.294   c-0.017-0.052-0.07-0.074-0.091-0.123c1.276-2.518,2.711-4.956,4.294-7.014c0.703-0.915,0.531-2.228-0.384-2.931   c-0.918-0.708-2.228-0.534-2.934,0.381c-1.975,2.568-3.715,5.613-5.217,8.689L373.56,187.488z M125.869,175.044   c-6.445-6.827-8.123-15.686-8.508-21.069c5.514,5.111,11.076,8.935,14.828,11.267l-3.333,0.819   c-0.637-0.511-1.263-0.983-1.927-1.581c-0.853-0.768-2.174-0.692-2.953,0.158c-0.774,0.861-0.703,2.185,0.158,2.958   c0.747,0.671,1.456,1.188,2.18,1.763L125.869,175.044z M283.681,244.058c-3.91-10.434-15.711-35.414-44.622-56.314   c0.023-0.061,0.037-0.141,0.061-0.201c0.37-0.958,0.855-1.783,1.27-2.689c43.771,11.185,70.414,29.383,81.056,37.855   C299.703,221.106,288.201,236.083,283.681,244.058z M331.066,202.689c-4.621,5.939-5.428,13.175-5.337,18.06   c-9.598-8.036-36.577-27.592-83.499-39.727c0.606-1.053,1.334-1.968,2.013-2.939c0.152,0.035,0.297,0.09,0.456,0.099   c57.73-2.48,89.939,9.916,101.735,15.758C339.816,195.281,334.6,198.144,331.066,202.689z M285.058,160.519   c12.76,0,42.219-1.531,67.627-14.122c-10.906,16.427-6.986,34.866-3.904,43.976c-11.701-5.993-43.388-18.441-101.186-16.448   C255.933,164.995,268.261,160.519,285.058,160.519z M235.988,205.097c0.521-4.729,1.041-9.227,1.862-13.016   c27.784,20.596,38.973,45.492,42.285,54.519c-6.823-1.53-13.005-1.034-18.332,1.713c-4.359,2.252-7.402,5.559-9.487,8.588   c-0.929-10.527-4.405-29.314-17.101-44.105c-0.041-0.048-0.098-0.068-0.142-0.111C235.411,210.139,235.713,207.59,235.988,205.097z    M233.345,268.968c-9.723-2.267-13.806-12.063-13.994-12.526c-0.256-0.632-0.804-1.106-1.468-1.259   c-0.158-0.033-0.316-0.054-0.474-0.054c-0.509,0-1.008,0.191-1.397,0.539c-6.985,6.282-15.53,7.938-19.796,8.374   c3.372-10.592,12.855-16.094,25.613-23.499l0.588-0.343c3.18-1.846,5.475-4.648,7.268-7.944   c-0.002,5.264,0.281,11.131,1.247,16.067c0.196,0.997,1.071,1.689,2.051,1.689c0.133,0,0.27-0.011,0.406-0.038   c1.133-0.223,1.871-1.324,1.651-2.457c-2.093-10.677-0.768-26.736-0.575-28.901c12.168,16.425,13.779,37.153,13.961,43.913   c-7.138-1.235-11.115-6.782-11.157-6.84c-0.39-0.567-1.03-0.904-1.714-0.904h-0.008c-0.681,0-1.318,0.327-1.711,0.883   C230.741,260.049,231.948,265.448,233.345,268.968z M225.936,211.728c-1.621-1.994-3.802-4.188-5.961-5.153   c0.488-1.949,0.946-4.024,1.362-6.203C223.575,202.211,226.963,205.999,225.936,211.728z M216.511,219.205   c0.627,0.091,4.44,0.828,6.022,5.723c-1.774-0.305-3.863-0.144-5.969,0.99C216.229,223.958,216.162,221.72,216.511,219.205z    M223.982,229.936c0.605,0.466,1.408,0.523,2.097,0.225c-1.214,2.253-2.739,4.116-4.616,5.516   c-1.026-1.035-2.534-2.886-3.671-5.569C220.892,227.849,223.672,229.712,223.982,229.936z M231.193,199.093   c0.73-0.188,1.295-0.767,1.486-1.498c-0.305,2.277-0.584,4.617-0.851,7.045c-0.876,7.955-1.832,16.57-4.543,23.109   c-0.769-8.792-6.507-12.027-9.868-12.613c0.179-0.607,0.341-1.205,0.569-1.839c0.297-0.827,0.59-1.715,0.877-2.653   c1.912,1.206,4.553,4.471,6.034,6.744c0.39,0.599,1.049,0.953,1.754,0.953c0.049,0,0.098,0,0.147-0.005   c0.76-0.054,1.43-0.518,1.749-1.204c5.007-10.77-1.734-18.449-6.425-21.348c0.118-0.767,0.236-1.532,0.343-2.311   c2.72,1.278,5.622,3.909,6.668,5.026c0.4,0.43,0.956,0.665,1.528,0.665C230.839,199.164,231.016,199.142,231.193,199.093z    M227.72,185.75c1.193,1.94,1.694,4.326,1.504,7.126c-1.699-1.41-3.942-2.934-6.24-3.746c0.247-2.378,0.432-4.765,0.539-7.121   C224.795,182.643,226.506,183.781,227.72,185.75z M229.232,171.535c-1.718-0.751-3.784-1.259-5.904-1.027   c-0.214-2.328-0.553-4.493-1.027-6.453C224.499,165.089,227.659,167.25,229.232,171.535z M215.731,140.437l-0.403,5.239   c-3.246,0.723-6.817,1.265-10.6,1.354c-0.567-0.196-1.357-0.461-2.277-0.757C207.838,144.28,212.675,141.991,215.731,140.437z    M154.593,174.254c-0.43-0.36-0.809-0.741-1.139-1.139c0.411-0.163,0.82-0.327,1.22-0.485c2.904-1.166,5.644-2.267,8.281-2.414   c5.925-0.365,7.655,1.978,8.042,2.697c0.395,0.736,0.332,1.384,0.098,1.705c-0.986,1.34-2.566,2.147-4.699,2.408   C161.523,177.583,155.723,175.197,154.593,174.254z M169.292,187.526c-0.632-0.458-1.466-0.528-2.155-0.169   c-7.178,3.585-14.321,3.133-18.857,2.228c2.724-1.857,5.916-4.969,8.052-9.883c2.446,0.887,5.485,1.602,8.492,1.602   c0.697,0,1.392-0.044,2.076-0.125c3.274-0.398,5.89-1.809,7.565-4.075c1.261-1.716,1.343-4.086,0.212-6.178   c-0.877-1.624-3.795-5.367-11.951-4.882c-3.326,0.18-6.519,1.46-9.608,2.702c-0.496,0.196-0.992,0.398-1.485,0.588   c-1.122-4.953,1.384-10.412,1.419-10.483c0.311-0.665,0.253-1.444-0.153-2.054c-1.163-1.749-3.479-2.839-5.914-3.52   c11.278-2.359,25.757,1.536,25.934,1.585c0.774,0.202,1.585-0.022,2.114-0.621c0.528-0.588,0.678-1.427,0.387-2.168   c-0.842-2.119-0.88-3.596-0.114-4.391c3.253-3.389,18.565-0.038,28.391,3.416c0.234,0.082,0.496,0.06,0.727,0.12   c9.682-0.153,18.143-2.92,23.153-4.991c-5.655,12.281-15.274,14.008-15.727,14.084c-1.136,0.18-1.912,1.242-1.738,2.381   c0.174,1.144,1.245,1.945,2.386,1.754c0.221-0.035,2.266-0.391,5.05-1.73c4.143,11.461,0.898,36.942-3.503,49.163   c-4.924,13.681,0.538,22.369,3.882,26.097c-13.214,7.688-23.545,14.22-26.436,27.64c-0.004,0.012-0.014,0.02-0.018,0.032   c-0.069,0.219-0.777,2.57-1.593,6.764c-5.121-3.403-14.664-17.371-9.527-33.744c1.4-4.468,3.046-8.837,4.637-13.065   c4.729-12.552,9.182-24.418,5.866-35.531c1.294-0.928,2.506-1.968,3.554-3.19c3.648-4.25,4.923-9.682,3.789-16.149   c-0.196-1.144-1.278-1.918-2.422-1.7c-1.136,0.196-1.899,1.28-1.697,2.419c0.918,5.247-0.011,9.398-2.841,12.7   c-5.47,6.385-16.593,7.704-21.455,7.971l0.36-2.615C170.251,188.741,169.921,187.978,169.292,187.526z M188.072,282.921   c-3.603,4.405-10.916,10.263-13.756,12.477c-2.622-2.5-5.248-5.467-7.562-8.945c10.705-1.816,17.13-8.461,19.538-11.54   c0.803,0.682,1.566,1.231,2.24,1.59c0.195,0.105,0.405,0.116,0.612,0.153c-0.282,1.792-0.548,3.823-0.801,6.044   C188.255,282.776,188.15,282.827,188.072,282.921z M162.611,244.789c1.685,0.474,6.054,1.59,10.086,1.59   c0.738,0,1.4-0.136,2.092-0.221c-0.148,2.576-0.022,5.055,0.338,7.414c-3.336,2.172-11.11,2.354-15.308,2.175   C160.382,252.083,161.345,248.422,162.611,244.789z M167.847,232.303c1.542,0.368,4.565,0.983,7.618,0.983   c0.792,0,1.58-0.048,2.347-0.146c-0.492,1.419-0.996,2.826-1.451,4.276c-0.48,1.532-0.812,3.034-1.079,4.521   c-0.016,0.003-0.031-0.002-0.046,0.001c-3.105,0.767-8.434-0.341-11.155-1.083C165.237,237.969,166.497,235.109,167.847,232.303z    M172.629,222.793c0.541-1.05,1.074-2.089,1.605-3.127c1.82,0.439,5.411,1.261,7.925,1.573c-0.359,0.96-0.712,1.913-1.082,2.894   c-0.556,1.476-1.115,2.993-1.672,4.504c-0.26-0.022-0.527-0.001-0.79,0.083c-2.48,0.765-6.353,0.242-8.862-0.279   C170.713,226.531,171.678,224.64,172.629,222.793z M179.267,209.141c1.506,0.57,3.917,1.328,6.351,1.328   c0.076,0,0.146-0.033,0.222-0.034c-0.63,2.188-1.387,4.443-2.206,6.744c-1.165-0.014-4.582-0.692-7.467-1.361   C177.287,213.554,178.325,211.329,179.267,209.141z M182.157,201.146c1.183,0.083,2.278,0.138,3.205,0.138   c0.912,0,1.639-0.06,2.301-0.141c-0.146,1.626-0.378,3.274-0.737,4.959c-1.588,0.47-4.183-0.139-6.105-0.85   C181.333,203.862,181.78,202.493,182.157,201.146z M162.506,259.989c4.007,0,9.612-0.456,13.484-2.256   c0.542,1.98,1.228,3.846,2.009,5.582c-7.188,4.994-15.218,6.143-18.059,6.379c-0.312-1.73-0.539-3.52-0.645-5.385   c-0.084-1.46-0.028-2.927,0.058-4.395C160.164,259.952,161.234,259.989,162.506,259.989z M179.943,267.046   c1.08,1.835,2.23,3.477,3.386,4.852c-1.779,2.358-8.051,9.567-18.857,10.738c-1.441-2.685-2.656-5.627-3.562-8.82   C164.556,273.46,172.513,272.049,179.943,267.046z M187.079,192.313c0.374,1.514,0.589,3.054,0.667,4.617l0,0   c-0.531,0.17-2.516,0.187-4.659,0.074c0.172-1.073,0.271-2.128,0.315-3.169C184.642,193.408,185.876,192.897,187.079,192.313z    M158.905,308.686c-0.542,0.174-0.994,0.556-1.248,1.062c-0.172,0.343-3.716,7.23-13.065,5.884   c3.307-2.179,6.336-5.846,6.336-11.452c0-0.311-0.068-0.616-0.202-0.894c-0.136-0.289-13.746-29.317-15.612-55.284   c-0.079-1.09-0.983-1.934-2.076-1.94h-0.011c-1.087,0-1.994,0.834-2.084,1.918c-0.542,6.533-2.705,13.942-4.947,14.127   c-0.825,0.087-2.757-0.534-3.481-1.727c-0.539-0.888-0.316-2.125,0.659-3.672c3.806-6.048,6.097-11.044,4.909-15.8   c-0.994-3.983-5.644-14.454-11.994-13.169l-1.656,0.376c-5.397,1.28-6.786,1.008-7.456-1.433c-0.166-0.61-0.076-1.106,0.289-1.613   c0.915-1.275,3.258-2.228,5.832-2.375c4.83-0.262,6.756,1.798,6.808,1.858c0.637,0.774,1.724,0.981,2.602,0.518   c0.877-0.469,1.305-1.493,1.019-2.446c-0.082-0.267-2.059-6.554-10.469-7.579c-1.888-0.229-2.343-1.444-2.395-2.414   c-0.082-1.607,0.934-3.514,2.779-3.934c3.307-0.736,9.477,2.07,12.152,12.765c0.281,1.128,1.441,1.776,2.536,1.526   c1.122-0.283,1.803-1.417,1.523-2.539c-1.369-5.474-3.588-9.227-6.067-11.756c0.043-0.078,0.109-0.135,0.142-0.219   c1.002-2.55,3.067-3.078,4.56-2.779c1.425,0.3,2.918,1.515,2.825,4.026c-0.259,6.93,5.219,17.614,8.069,21.532   c2.158,2.964,2.7,6.173,3.449,10.619c0.335,1.983,0.703,4.152,1.259,6.576c2.774,12.073,10.065,19.387,11.781,20.978   c2.264,14.522,10.444,24.662,17.944,31.115C170.383,302.834,163.961,307.11,158.905,308.686z M177.494,298.228   c2.416-1.901,6.671-5.378,10.237-8.855c-0.3,4.075-0.52,8.551-0.539,13.636c-0.002,0.594-0.052,1.16-0.07,1.745   C185.055,303.643,181.471,301.513,177.494,298.228z M306.724,284.284l3.644-10.791c3.563,1.265,6.921,2.713,10.077,4.297   l-6.96,9.714C311.274,286.209,309.019,285.137,306.724,284.284z M302.723,283.046c-1.955-0.502-3.931-0.871-5.935-1.065   l1.354-11.805c0.487,0.091,0.985,0.143,1.468,0.247c2.338,0.504,4.581,1.116,6.775,1.778L302.723,283.046z M292.597,281.804   c-2.064,0.019-4.151,0.206-6.256,0.541l-1.15-13.22c2.957-0.04,5.907,0.084,8.813,0.411L292.597,281.804z M281.007,269.297   l1.207,13.888c-2.159,0.549-4.339,1.286-6.532,2.16l-3.692-15.064C274.95,269.826,277.963,269.488,281.007,269.297z    M274.568,309.489c-1.678-0.591-3.251-1.392-4.739-2.281l7.48-14.196c0.175,0.2,0.366,0.37,0.511,0.614   c0.744,1.253,0.855,2.904,0.332,4.909C277.456,301.202,276.209,305.127,274.568,309.489z M265.297,295.577   c2.589-1.726,5.436-3.382,8.475-4.822l-7.427,14.096c-2.858-2.212-5.073-4.521-6.326-5.962   C261.763,297.85,263.525,296.758,265.297,295.577z M267.855,270.985l3.939,16.071c-2.019,0.973-4.048,2.081-6.089,3.325   l-6.059-17.577C262.264,272.134,265.023,271.524,267.855,270.985z M255.599,273.899l6.385,18.524   c0.029,0.083,0.111,0.12,0.148,0.197c-2.551,1.669-5.074,3.162-7.554,4.536l-6.186-21   C250.596,275.41,252.999,274.643,255.599,273.899z M244.437,277.546l6.36,21.589c0.004,0.015,0.021,0.022,0.026,0.037   c-2.778,1.422-5.441,2.679-7.891,3.74l-6.918-21.593c0.088-0.15,0.186-0.345,0.271-0.485   C237.431,280.318,240.328,279.058,244.437,277.546z M233.349,286.709l5.706,17.809c-4.356,1.728-7.757,2.829-9.45,3.334   C228.517,300.93,230.792,292.737,233.349,286.709z M232.117,324.982c1.417-3.405,0.997-7.6-1.28-12.809   c-0.041-0.093-0.082-0.185-0.12-0.283c3.511-1.026,13.78-4.378,25.595-10.9c2.111,2.556,8.356,9.385,16.728,12.383   c-4.753,11.627-11.851,24.66-19.002,25.818c-5.993,0.948-9.238-2.626-12.37-6.108c-2.732-3.029-5.835-6.462-10.237-4.141   c-0.343,0.181-0.601,0.413-0.901,0.62c-0.341-0.199-0.811-0.443-1.367-0.699C230.366,327.813,231.448,326.596,232.117,324.982z    M302.953,296.629c0.613,3.808,3.073,7.099,7.314,9.785c2.476,1.564,3.754,3.285,3.8,5.116c0.049,1.956-1.229,3.994-2.675,5.644   c-0.199-0.409-0.441-0.746-0.689-1.019c-2.67-2.964-8.475-1.629-9.614-1.329c-0.289,0.071-0.558,0.212-0.79,0.398   c-2.144,1.743-21.044,17.244-23.953,23.787c-1.09,2.452-2.03,4.996-0.558,6.821c1.534,1.907,4.468,1.694,9.698,0.61   c0.449-0.093,0.774-0.12,0.992-0.12c0.251,0,0.373,0,0.373,0.027c0.177,0.3,0.294,1.983-1.4,5.808   c-0.308,0.692-1.087,1.057-1.869,0.899c-5.582-1.155-16.288-2.484-25.207,1.645c-4.688,2.174-7.998,2.332-11.828,2.517   c-3.525,0.169-7.519,0.365-13.043,2.158c-1.272,0.409-5.492,1.613-6.263-0.392c-0.645-1.685,0.611-4.634,1.944-5.499   c8.234,0.32,11.59,0.323,11.59,0.323c1.155,0,2.092-0.937,2.092-2.092s-0.937-2.092-2.092-2.092c-0.035,0-3.506,0-12.12-0.349   c-1.487-0.06-4.067-0.42-4.623-2.174c-0.414-1.302,0.316-3.182,1.629-4.184c1.139-0.883,4.977,0.087,8.728,1.705   c1.19,0.752,2.43,1.357,3.631,1.754c1.019,0.365,2.144-0.153,2.577-1.144c0.436-0.992,0.044-2.147-0.904-2.67   c-0.744-0.414-1.959-1.052-3.424-1.705c-2.435-1.651-4.364-4.015-4.514-5.862c-0.054-0.665,0.079-1.536,1.626-2.348   c1.343-0.703,2.305,0.06,5.179,3.242c3.337,3.699,7.895,8.723,16.149,7.431c16.073-2.604,27.386-43.32,27.492-43.728   c0.815-3.122,0.553-5.846-0.782-8.096c-0.771-1.301-1.763-2.147-2.71-2.792c7.892-2.84,16.789-3.811,25.924-0.647   C303.587,289.975,302.382,293.087,302.953,296.629z M317.012,289.767l7.153-9.985c2.606,1.463,5.052,2.999,7.352,4.587   l-9.177,9.482c-0.713-0.555-1.404-1.032-2.128-1.63C319.158,291.348,318.091,290.531,317.012,289.767z M334.945,302.008   l9.189-7.322c1.77,1.71,3.385,3.381,4.81,4.957l-7.431,5.281C339.428,304.145,337.236,303.178,334.945,302.008z M330.951,299.842   c-1.712-1.019-3.47-2.158-5.267-3.427l9.264-9.573c2.178,1.647,4.218,3.313,6.082,4.969L330.951,299.842z M346.493,306.519   l5.197-3.694c1.703,2.054,3.082,3.876,4.076,5.278C353.18,307.951,350.029,307.467,346.493,306.519z M389.919,235.526   c-3.697,24.751-23.531,32.955-29.436,34.871c-4.965-11.168-13.195-20.563-18.672-23.402c-1.019-0.523-2.286-0.125-2.82,0.894   c-0.531,1.03-0.131,2.288,0.896,2.822c4.173,2.163,12.624,10.962,17.503,22.986c5.266,12.972,13.686,20.328,25.021,21.864   c2.28,0.305,3.847,1.231,4.795,2.822c1.389,2.343,1.318,5.862,0.809,8.957c-2.67-1.694-7.015-2.239-9.382-0.425   c-1.477,1.128-1.899,2.92-1.133,4.795c0.518,1.269,0.757,5.824,0.989,10.232c0.667,12.755,1.515,22.785,5.704,26.179   c1.21,0.981,2.667,1.384,4.173,1.128c8.271-1.308,11.289,0.447,13.258,3.492c0.12,0.185,0.485,0.746-0.496,1.787   c-1.487,1.569-4.607,2.49-6.707,1.302c-4.95-2.833-8.423-1.64-14.168,0.338c-1.005,0.343-2.106,0.719-3.318,1.117   c-5.704,1.842-11.589,0.926-16.323,0.185c-1.389-0.212-2.653-0.409-3.757-0.512c-2.697-0.256-5.154,1.084-7.532,2.386   c-2.879,1.575-5.598,3.084-8.802,2.108c-1.487-0.447-1.97-1.193-2.207-1.722c-0.703-1.573-0.184-3.855,0.318-5.305   c1.794-0.316,3.408-0.257,5.182-0.072c2.561,0.256,5.476,0.561,9.148-0.79c1.084-0.398,1.637-1.602,1.24-2.686   c-0.4-1.084-1.596-1.624-2.689-1.237c-2.76,1.008-4.857,0.806-7.268,0.55c-2.198-0.223-4.677-0.474-7.658,0.316   c-0.455,0.12-1.141,0.191-1.667-0.659c-0.692-1.111-0.662-3.165,0.755-4.767c1.09-1.237,3.201-1.199,5.151-0.785   c1.092,0.61,2.482,1.111,4.277,1.455c1.024,0.218,2.04-0.398,2.375-1.384c0.335-0.992-0.112-2.076-1.046-2.544   c-0.158-0.076-1.803-0.883-3.996-1.438c-1.155-0.839-1.566-2.021-2.185-3.792l-0.466-1.302c-0.278-0.741-0.635-1.302-1.024-1.727   c1.005-0.436,1.989-0.632,2.945-0.572c2.152,0.147,4.075,1.607,5.715,4.348c5.429,9.044,14.433,9.148,14.814,9.148   c0.869,0,1.648-0.539,1.956-1.351c6.767-17.881-2.28-35.169-2.67-35.899c-0.006-0.012-0.018-0.018-0.024-0.029   c-0.005-0.01-0.003-0.021-0.009-0.031c-0.804-1.389-20.112-34.03-60.997-42.84c-29.451-6.369-65.039,10.248-66.54,10.962   c-0.354,0.163-0.651,0.425-0.864,0.752c-4.233,6.543-11.292,23.907-6.088,35.801c1.773,4.054,2.196,7.257,1.253,9.529   c-0.632,1.52-1.863,2.741-3.958,3.868c-0.281-2.615-1.182-6.02-3.874-7.502c-2.632-1.438-6.053-0.637-10.177,2.392   c-9.761,7.175-23.687,24.125-22.417,31.464c0.311,1.803,1.441,3.084,3.179,3.607c1.681,0.501,3.751,0.932,5.93,1.378   c4.31,0.888,9.393,1.929,11.648,3.797c-6.086-0.779-17.876-1.858-22.537,0.757c-5.497,3.095-14.947,5.067-21.526,2.686   c-2.392-0.997-7.747-1.787-10.861,2.43c-1.16,1.575-2.983,2.005-4.16,1.607c-1.368-0.447-1.654-1.869-1.654-2.98   c0-4.854,4.672-5.23,6.102-5.23c1.155,0,2.092-0.937,2.092-2.092s-0.937-2.092-2.092-2.092c-3.204,0-5.84,1.043-7.65,2.821   c-1.672-0.874-2.753-1.906-3.145-3.099c-0.537-1.629,0.234-3.318,0.744-4.179c0.969-1.647,2.684-2.521,3.734-2.943   c2.375,2.231,5.138,3.827,6.525,4.436c1.046,0.452,2.286-0.022,2.757-1.079c0.463-1.057-0.022-2.294-1.079-2.757   c-2.8-1.226-7.925-5.007-8.167-8.178c-0.09-1.16,0.981-2.043,2.087-2.321c0.798-0.202,2.809-0.36,4.018,2.435   c3.059,7.077,13.008,12.057,13.43,12.264c0.294,0.147,0.61,0.218,0.926,0.218c0.509,0,1.011-0.185,1.406-0.539   c0.885-0.806,21.722-20.05,21.842-51.53c0.072-19.03,2.718-30.901,3.7-34.676c3.698-0.178,13.151-1.316,21.64-7.826   c2.457,4.353,8.693,12.804,20.17,13.092c0.016,0,0.035,0,0.052,0c0.752,0,1.447-0.409,1.82-1.062   c0.381-0.676,0.36-1.504-0.054-2.152c-0.041-0.065-3.255-5.209-2.523-9.644c2.637,2.544,7.44,5.988,14.283,6.233h0.001h0.001   c0.025,0,0.049,0,0.074,0c0.362,0,0.687-0.118,0.986-0.283c0.136-0.076,0.256-0.133,0.369-0.241   c0.268-0.232,0.464-0.528,0.587-0.872c0.011-0.032,0.044-0.048,0.054-0.08c0.027-0.093,2.923-9.208,11.185-13.474   c5.277-2.73,11.64-2.899,18.938-0.496c0.18,0.059,0.361,0.056,0.541,0.065c0.041,0.003,0.072,0.038,0.113,0.038   c0.032,0,0.065-0.012,0.097-0.013c0.054-0.002,0.105-0.014,0.159-0.021c0.093-0.012,0.186-0.011,0.278-0.037   c0.064-0.017,0.11-0.062,0.172-0.084c0.138-0.05,0.263-0.112,0.388-0.191c0.11-0.068,0.21-0.139,0.303-0.225   c0.099-0.09,0.181-0.189,0.262-0.298c0.081-0.11,0.152-0.218,0.21-0.341c0.027-0.057,0.074-0.097,0.096-0.157   c0.279-0.761,4.606-12.06,15.397-18.728c0.039,0.006,0.07,0.031,0.109,0.035c0.259,0.027,26.04,2.882,40.309,9.851   c4.35,2.125,9.66,3.176,14.915,3.176c5.933,0,11.793-1.34,16.105-3.983c4.707-2.882,7.238-7.023,7.323-11.959   c0.172-10.123-6.059-17.914-12.008-20.099c-3.732-1.368-7.325-0.545-9.597,2.228c-2.828,3.443-2.661,7.906,0.398,10.613   c3.174,2.811,9.036,3.258,14.901-1.929c0.687,1.332,1.235,2.803,1.605,4.374c-6.617,4.572-12.788,6.097-17.828,4.398   c-4.786-1.613-7.641-5.759-8.72-9.099c-0.847-2.621-0.37-5.879,1.302-8.93c2.354-4.293,6.642-7.524,11.763-8.859   c5.339-1.4,14.098-0.196,20.712,5.743C386.873,211.515,392.237,220.02,389.919,235.526z M370.763,215.977   c-4.111,3.868-7.895,3.955-9.761,2.299c-1.373-1.215-1.348-3.111,0.063-4.822c0.836-1.019,1.871-1.362,2.877-1.362   c0.725,0,1.436,0.18,2.046,0.403C367.643,213.106,369.308,214.316,370.763,215.977z"/>
</g>
    <g>
</g>
    <g>
</g>
    <g>
</g>
    <g>
</g>
    <g>
</g>
    <g>
</g>
    <g>
</g>
    <g>
</g>
    <g>
</g>
    <g>
</g>
    <g>
</g>
    <g>
</g>
    <g>
</g>
    <g>
</g>
    <g>
</g>
</svg>
