<?xml version="1.0" encoding="iso-8859-1"?>
<!-- Generator: Adobe Illustrator 19.0.0, SVG Export Plug-In . SVG Version: 6.00 Build 0)  -->
<svg xmlns="http://www.w3.org/2000/svg" xmlns:xlink="http://www.w3.org/1999/xlink" version="1.1" id="Layer_1" x="0px"
     y="0px" viewBox="0 0 512 512" style="enable-background:new 0 0 512 512;" xml:space="preserve">
<rect y="0.398" style="fill:#73AF00;" width="512" height="73.06"/>
    <rect y="73.452" style="fill:#F5F5F5;" width="512" height="73.06"/>
    <rect y="146.532" style="fill:#73AF00;" width="512" height="73.06"/>
    <rect y="219.592" style="fill:#F5F5F5;" width="512" height="73.06"/>
    <rect y="292.652" style="fill:#73AF00;" width="512" height="73.06"/>
    <rect y="365.712" style="fill:#F5F5F5;" width="512" height="73.06"/>
    <rect y="438.772" style="fill:#73AF00;" width="512" height="73.06"/>
    <rect y="0.168" style="fill:#FF4B55;" width="342.67" height="219.01"/>
    <g>
	<path style="fill:#F5F5F5;"
          d="M184.474,201.891H162.79c-1.972,0-3.736-1.228-4.421-3.077l-6.981-18.848   c-2.725-7.358-3.949-15.188-3.599-23.027l2.43-54.439c0.062-1.382,0.949-2.59,2.249-3.063l0,0c2.231-0.811,4.591,0.841,4.591,3.215   v24.791c0,0.693,0.562,1.255,1.255,1.255l0,0c0.669,0,1.221-0.525,1.254-1.193l1.949-39.529c0.079-1.605,1.285-2.929,2.876-3.156   l0,0c1.972-0.282,3.754,1.208,3.827,3.199l1.345,36.853c0.027,0.74,0.682,1.298,1.417,1.206l0,0c0.622-0.078,1.092-0.6,1.105-1.227   l0.808-40.951c0.044-2.236,2.244-3.789,4.365-3.081l0,0c1.299,0.433,2.198,1.619,2.264,2.987l1.998,41.392   c0.022,0.46,0.291,0.873,0.703,1.079l0,0c0.832,0.416,1.816-0.171,1.845-1.101l1.002-32.071c0.076-2.422,2.613-3.969,4.8-2.927l0,0   c1.105,0.526,1.836,1.612,1.909,2.833l2.333,39.363l6.245,18.216c0.351,1.023,1.788,1.042,2.16,0.027   c1.769-4.828,5.783-13.843,12.225-17.814c1.141-0.703,2.604-0.612,3.676,0.192l0,0c1.577,1.183,1.762,3.464,0.413,4.9   c-3.14,3.342-7.717,10.366-7.386,22.717c0.042,1.571-0.413,3.117-1.342,4.386l-17.595,24.038c-1.762,2.407-2.892,5.218-3.286,8.174   l-0.079,0.59C188.835,200.143,186.837,201.891,184.474,201.891z"/>
        <path style="fill:#F5F5F5;"
              d="M173.689,18.585l3.533,10.594l11.167,0.087c0.865,0.007,1.224,1.111,0.528,1.625l-8.984,6.634   l3.369,10.647c0.261,0.825-0.678,1.507-1.382,1.004l-9.085-6.494l-9.085,6.494c-0.704,0.503-1.643-0.179-1.382-1.004l3.369-10.647   l-8.984-6.634c-0.696-0.514-0.337-1.618,0.528-1.625l11.167-0.087l3.533-10.594C172.254,17.764,173.415,17.764,173.689,18.585z"/>
        <path style="fill:#F5F5F5;"
              d="M121.157,33.828l3.533,10.594l11.167,0.087c0.865,0.007,1.224,1.111,0.528,1.625l-8.984,6.634   l3.369,10.647c0.261,0.825-0.678,1.507-1.382,1.004l-9.085-6.494l-9.085,6.494c-0.704,0.503-1.643-0.179-1.382-1.004l3.369-10.647   l-8.984-6.634c-0.696-0.514-0.337-1.618,0.528-1.625l11.167-0.087l3.533-10.594C119.723,33.007,120.884,33.007,121.157,33.828z"/>
        <path style="fill:#F5F5F5;"
              d="M227.5,33.828l3.533,10.594l11.167,0.087c0.865,0.007,1.224,1.111,0.528,1.625l-8.984,6.634   l3.369,10.647c0.261,0.825-0.678,1.507-1.382,1.004l-9.085-6.494l-9.085,6.494c-0.704,0.503-1.643-0.179-1.382-1.004l3.369-10.647   l-8.984-6.634c-0.696-0.514-0.337-1.618,0.528-1.625l11.167-0.087l3.533-10.594C226.065,33.007,227.226,33.007,227.5,33.828z"/>
        <path style="fill:#F5F5F5;"
              d="M262.731,73.887l3.533,10.594l11.167,0.087c0.865,0.007,1.224,1.111,0.528,1.625l-8.984,6.634   l3.369,10.647c0.261,0.825-0.678,1.507-1.382,1.004l-9.085-6.494l-9.085,6.494c-0.704,0.503-1.643-0.179-1.382-1.004l3.369-10.647   l-8.984-6.634c-0.696-0.514-0.337-1.618,0.528-1.625l11.167-0.087l3.533-10.594C261.296,73.066,262.457,73.066,262.731,73.887z"/>
        <path style="fill:#F5F5F5;"
              d="M82.995,73.887l3.533,10.594l11.167,0.087c0.865,0.007,1.224,1.111,0.528,1.625l-8.984,6.634   l3.369,10.647c0.261,0.825-0.678,1.507-1.382,1.004l-9.085-6.494l-9.085,6.494c-0.704,0.503-1.643-0.179-1.382-1.004l3.369-10.647   l-8.984-6.634c-0.696-0.514-0.337-1.618,0.528-1.625l11.167-0.087l3.533-10.594C81.561,73.066,82.721,73.066,82.995,73.887z"/>
        <path style="fill:#F5F5F5;"
              d="M272.863,126.431l3.533,10.594l11.167,0.087c0.865,0.007,1.224,1.111,0.528,1.625l-8.984,6.634   l3.369,10.648c0.261,0.825-0.678,1.507-1.382,1.004l-9.085-6.494l-9.085,6.494c-0.704,0.503-1.643-0.179-1.382-1.004l3.369-10.648   l-8.984-6.634c-0.696-0.514-0.337-1.618,0.528-1.625l11.167-0.087l3.533-10.594C271.428,125.611,272.589,125.611,272.863,126.431z"/>
        <path style="fill:#F5F5F5;"
              d="M69.305,126.431l3.533,10.594l11.167,0.087c0.865,0.007,1.224,1.111,0.528,1.625l-8.984,6.634   l3.369,10.648c0.261,0.825-0.678,1.507-1.382,1.004l-9.085-6.494l-9.085,6.494c-0.704,0.503-1.643-0.179-1.382-1.004l3.369-10.648   l-8.984-6.634c-0.696-0.514-0.337-1.618,0.528-1.625l11.167-0.087l3.533-10.594C67.871,125.611,69.031,125.611,69.305,126.431z"/>
</g>
    <g>
</g>
    <g>
</g>
    <g>
</g>
    <g>
</g>
    <g>
</g>
    <g>
</g>
    <g>
</g>
    <g>
</g>
    <g>
</g>
    <g>
</g>
    <g>
</g>
    <g>
</g>
    <g>
</g>
    <g>
</g>
    <g>
</g>
</svg>
