<?xml version="1.0" encoding="iso-8859-1"?>
<!-- Generator: Adobe Illustrator 19.0.0, SVG Export Plug-In . SVG Version: 6.00 Build 0)  -->
<svg xmlns="http://www.w3.org/2000/svg" xmlns:xlink="http://www.w3.org/1999/xlink" version="1.1" id="Layer_1" x="0px"
     y="0px" viewBox="0 0 512 512" style="enable-background:new 0 0 512 512;" xml:space="preserve">
<rect style="fill:#F5F5F5;" width="512" height="512"/>
    <g>
	<path style="fill:#FFECD7;"
          d="M184.058,356.96c-31.106-7.1-58.838-23.16-80.294-45.352v47.465   c23.412,17.076,50.728,29.042,80.294,34.514V356.96z"/>
        <path style="fill:#FFECD7;"
              d="M327.867,356.96c31.106-7.1,58.838-23.16,80.294-45.352v47.465   c-23.412,17.076-50.728,29.042-80.294,34.514V356.96z"/>
</g>
    <g>
	<path style="fill:#FFE15A;"
          d="M170.276,254.084c-1.498,0.3-3.595,4.194-4.194,10.786c-0.599,6.591-4.794,34.454-13.782,31.458   c-8.988-2.996-14.98-16.179-14.98-16.179l-12.583,18.276c0,0,8.389-3.296,17.077,0.599c8.689,3.895,10.786,5.992,13.183,3.595   s8.089-9.587,12.583-8.988l5.093-36.252L170.276,254.084z"/>
        <path style="fill:#FFE15A;"
              d="M120.542,313.705c0,0-2.097,17.377-0.899,19.474s34.155,9.887,34.155,9.887   s-9.587,7.79-9.887,11.984c0,0-11.685,2.097-15.879,5.692l-15.579-25.766l-0.599-21.272h8.688   C120.542,313.704,120.542,313.705,120.542,313.705z"/>
</g>
    <path style="fill:#FFECD7;"
          d="M110.131,155.664l0.225-8.988c0,0-10.561-1.124-11.909,22.695l-3.82-10.561  c0,0-7.865,10.561-3.146,27.638l-2.022,1.573c0,0-10.336-13.707-16.628-31.458c0,0-10.561,8.314,1.798,31.908l-15.28-19.324  c0,0-7.64,16.179,15.28,35.503l-21.571-15.28c0,0-1.348,17.527,19.549,28.762L51.71,206.897c0,0,0.674,16.853,24.942,25.167  l-22.92-4.269c0,0,5.804,13.778,22.752,17.496c-3.559,3.974-6.846,9.312-7.697,16.209l17.077-9.438c0,0-8.089,8.314-5.842,19.774  l26.29-26.29l-3.593-1.606c19.89-3.73,15.727-5.135,15.727-5.135s-14.681-37.75-4.794-63.816s18.576-29.661,18.576-30.86  C132.226,142.931,121.59,141.508,110.131,155.664z"/>
    <path style="fill:#FFE15A;"
          d="M130.429,170.794c0,0,34.155,35.952,34.754,39.248s-3.595,2.696-3.595,2.696  s-8.389-10.786-19.774-14.98c-11.385-4.194-18.875-17.377-23.369-20.373C113.95,174.389,130.429,170.794,130.429,170.794z"/>
    <path style="fill:#FFF5E1;"
          d="M119.044,179.482c4.494,1.498,14.681-0.599,14.381-9.887s-9.587-12.883-16.478-10.786  s-19.774,11.685-11.685,30.26s20.073,25.466,22.47,41.345c0,0-10.786,1.648-16.478,0.3c-4.892-1.159-13.183-5.093-11.385-15.879  s5.992-17.077,2.397-23.069c-3.595-5.992-14.98-16.478-14.98-16.478s-24.567,62.917,19.774,79.395c0,0-20.972,20.073-31.458,39.548  l6.292,1.798c0,0-11.085,11.984-17.377,16.478c0,0,20.673,7.19,41.046-16.179c0,0,5.093,8.389,6.292,17.377h8.689  c0,0,2.996-14.381,16.778-26.365c13.782-11.984,27.769-29.073,26.365-44.641c-1.648-18.276-15.411-26.498-29.736-37.825  C114.625,189.594,119.044,179.482,119.044,179.482z"/>
    <g>
	<path style="fill:#FFE15A;"
          d="M341.724,254.084c1.498,0.3,3.595,4.194,4.194,10.786c0.599,6.591,4.794,34.454,13.782,31.458   s14.98-16.179,14.98-16.179l12.583,18.276c0,0-8.389-3.296-17.077,0.599s-10.786,5.992-13.183,3.595s-8.089-9.587-12.583-8.988   l-5.093-36.252L341.724,254.084z"/>
        <path style="fill:#FFE15A;"
              d="M391.458,313.705c0,0,2.097,17.377,0.899,19.474s-34.155,9.887-34.155,9.887   s9.587,7.79,9.887,11.984c0,0,11.685,2.097,15.879,5.692l15.579-25.766l0.599-21.272h-8.688V313.705z"/>
</g>
    <path style="fill:#FFECD7;"
          d="M401.869,155.664l-0.225-8.988c0,0,10.561-1.124,11.909,22.695l3.82-10.561  c0,0,7.865,10.561,3.146,27.638l2.022,1.573c0,0,10.336-13.707,16.628-31.458c0,0,10.561,8.314-1.798,31.908l15.28-19.324  c0,0,7.64,16.179-15.28,35.503l21.571-15.28c0,0,1.348,17.527-19.549,28.762l20.897-11.235c0,0-0.674,16.853-24.942,25.167  l22.92-4.269c0,0-5.804,13.778-22.752,17.496c3.559,3.974,6.846,9.312,7.697,16.209l-17.077-9.438c0,0,8.089,8.314,5.842,19.774  l-26.29-26.29l3.593-1.606c-19.89-3.73-15.727-5.135-15.727-5.135s14.681-37.75,4.794-63.816s-18.576-29.661-18.576-30.86  C379.774,142.931,390.41,141.508,401.869,155.664z"/>
    <path style="fill:#FFE15A;"
          d="M381.571,170.794c0,0-34.155,35.952-34.754,39.248s3.595,2.696,3.595,2.696  s8.389-10.786,19.774-14.98c11.385-4.194,18.875-17.377,23.369-20.373S381.571,170.794,381.571,170.794z"/>
    <path style="fill:#FFF5E1;"
          d="M392.956,179.482c-4.494,1.498-14.681-0.599-14.381-9.887s9.587-12.883,16.478-10.786  s19.774,11.685,11.685,30.26s-20.073,25.466-22.47,41.345c0,0,10.786,1.648,16.478,0.3c4.892-1.159,13.183-5.093,11.385-15.879  s-5.992-17.077-2.397-23.069s14.98-16.478,14.98-16.478s24.567,62.917-19.774,79.395c0,0,20.972,20.073,31.458,39.548l-6.292,1.798  c0,0,11.085,11.984,17.377,16.478c0,0-20.673,7.19-41.046-16.179c0,0-5.093,8.389-6.292,17.377h-8.689  c0,0-2.996-14.381-16.778-26.365c-13.782-11.984-27.769-29.073-26.365-44.641c1.648-18.276,15.411-26.498,29.736-37.825  C397.375,189.594,392.956,179.482,392.956,179.482z"/>
    <rect x="169.68" y="118.66" style="fill:#464655;" width="172.57" height="34.754"/>
    <path style="fill:#41479B;"
          d="M255.963,146.227h-86.286c0,0,0,93.476,0,115.048c0,21.571,14.381,79.095,86.286,100.667  c71.905-21.571,86.286-79.095,86.286-100.667c0-21.571,0-115.048,0-115.048L255.963,146.227L255.963,146.227z"/>
    <path style="fill:#FF4B55;"
          d="M169.677,261.274c0,5.345,0.893,12.905,3.315,21.571h165.942c2.422-8.666,3.315-16.226,3.315-21.571  v-43.143H169.677V261.274z"/>
    <g>
	<polygon style="fill:#F5F5F5;" points="255.963,250.489 245.896,275.655 255.963,270.622 266.029,275.655  "/>
        <polygon style="fill:#F5F5F5;" points="255.963,250.489 266.029,225.322 255.963,230.355 245.896,225.322  "/>
        <polygon style="fill:#F5F5F5;" points="255.963,250.489 230.796,240.422 235.829,250.489 230.796,260.555  "/>
        <polygon style="fill:#F5F5F5;" points="255.963,250.489 281.129,260.555 276.096,250.489 281.129,240.422  "/>
</g>
    <g>
	<path style="fill:#FFE15A;"
          d="M267.267,171.651c-1.679,0.269-3.155,0.484-4.488,1.185c1.514-3.785,2.582-7.335,1.642-9.822   c-2.297-6.081-6.714-4.993-8.416-9.427v-0.169c-0.012,0.033-0.03,0.051-0.042,0.085c-0.012-0.033-0.031-0.051-0.042-0.085v0.169   c-1.701,4.434-6.118,3.346-8.416,9.427c-0.94,2.487,0.128,6.036,1.642,9.822c-1.333-0.7-2.81-0.916-4.489-1.185   c-3.427-0.548-8.637,3.016-7.54,9.871s9.048,7.403,9.048,7.403c-1.097-1.097-2.056-2.879-1.508-4.798s4.524-3.564,6.581,2.879   s-4.935,15.629-4.935,15.629c2.393-0.126,4.141-0.872,5.403-1.628c-1.66,5.411,3.77,9.599,4.214,9.927v0.064l0.042-0.032   c0.005,0.003,0.042,0.032,0.042,0.032v-0.064c0.444-0.328,5.873-4.516,4.214-9.925c1.262,0.756,3.01,1.501,5.403,1.627   c0,0-6.992-9.185-4.935-15.629c2.056-6.443,6.032-4.798,6.581-2.879c0.548,1.919-0.411,3.702-1.508,4.798   c0,0,7.952-0.548,9.048-7.403C275.904,174.667,270.694,171.102,267.267,171.651z"/>
        <path style="fill:#FFE15A;"
              d="M320.178,171.651c-1.679,0.269-3.155,0.484-4.488,1.185c1.514-3.785,2.582-7.335,1.642-9.822   c-2.297-6.081-6.714-4.993-8.416-9.427v-0.169c-0.012,0.033-0.03,0.051-0.042,0.085c-0.012-0.033-0.031-0.051-0.042-0.085v0.169   c-1.701,4.434-6.118,3.346-8.416,9.427c-0.94,2.487,0.128,6.036,1.642,9.822c-1.333-0.7-2.81-0.916-4.489-1.185   c-3.427-0.548-8.637,3.016-7.54,9.871s9.048,7.403,9.048,7.403c-1.097-1.097-2.056-2.879-1.508-4.798s4.524-3.564,6.581,2.879   s-4.935,15.629-4.935,15.629c2.393-0.126,4.141-0.872,5.404-1.628c-1.66,5.411,3.77,9.599,4.214,9.927v0.064l0.042-0.032   c0.005,0.003,0.042,0.032,0.042,0.032v-0.064c0.444-0.328,5.873-4.516,4.214-9.925c1.262,0.756,3.01,1.501,5.403,1.627   c0,0-6.992-9.185-4.935-15.629s6.032-4.798,6.581-2.879c0.548,1.919-0.411,3.702-1.508,4.798c0,0,7.952-0.548,9.048-7.403   C328.815,174.667,323.606,171.102,320.178,171.651z"/>
        <path style="fill:#FFE15A;"
              d="M214.356,171.651c-1.679,0.269-3.155,0.484-4.488,1.185c1.514-3.785,2.582-7.335,1.642-9.822   c-2.297-6.081-6.714-4.993-8.416-9.427v-0.169c-0.012,0.033-0.03,0.051-0.042,0.085c-0.012-0.033-0.031-0.051-0.042-0.085v0.169   c-1.701,4.434-6.118,3.346-8.416,9.427c-0.94,2.487,0.128,6.036,1.642,9.822c-1.333-0.7-2.81-0.916-4.489-1.185   c-3.427-0.548-8.637,3.016-7.54,9.871s9.048,7.403,9.048,7.403c-1.097-1.097-2.056-2.879-1.508-4.798s4.524-3.564,6.581,2.879   s-4.935,15.629-4.935,15.629c2.393-0.126,4.141-0.872,5.403-1.628c-1.66,5.411,3.77,9.599,4.214,9.927v0.064l0.042-0.032   c0.005,0.003,0.042,0.032,0.042,0.032v-0.064c0.444-0.328,5.873-4.516,4.214-9.925c1.262,0.756,3.01,1.501,5.403,1.627   c0,0-6.992-9.185-4.935-15.629s6.032-4.798,6.581-2.879c0.548,1.919-0.411,3.702-1.508,4.798c0,0,7.952-0.548,9.048-7.403   S217.783,171.102,214.356,171.651z"/>
        <path style="fill:#FFE15A;"
              d="M272.839,319.804c0,0-3.845-0.604-4.151,3.27c0,0,0,0.444-0.019,1.058   c-0.475-0.225-0.993-0.371-1.553-0.371c-2.032,0-3.679,1.647-3.679,3.679c0,2.032,1.647,3.679,3.679,3.679   c0.161,0,0.299-0.072,0.455-0.092c-0.547,1.753-1.418,3.35-2.64,4.504h-4.911c-1.292-1.431-1.684-4.229-1.768-6.257   c0.079,0.006,0.139,0.06,0.221,0.06c1.667,0,3.019-1.352,3.019-3.019c0-1.646-1.322-2.975-2.961-3.007   c0.261-0.447,0.451-0.937,0.451-1.492c0-1.667-1.351-3.019-3.019-3.019c-1.667,0-3.019,1.352-3.019,3.019   c0,0.554,0.19,1.045,0.451,1.492c-1.639,0.033-2.96,1.361-2.96,3.007c0,1.667,1.352,3.019,3.019,3.019   c0.081,0,0.141-0.055,0.22-0.06c-0.083,2.028-0.476,4.827-1.768,6.257h-4.911c-1.222-1.153-2.093-2.751-2.64-4.504   c0.156,0.02,0.294,0.092,0.455,0.092c2.032,0,3.679-1.647,3.679-3.679c0-2.032-1.647-3.679-3.679-3.679   c-0.561,0-1.078,0.147-1.553,0.371c-0.019-0.615-0.019-1.058-0.019-1.058c-0.306-3.874-4.151-3.27-4.151-3.27   c2.39,7.296,1.761,15.727,1.761,15.727v7.417h30.188v-7.401l0.043-0.016C271.078,335.531,270.449,327.1,272.839,319.804z"/>
        <path style="fill:#FFE15A;"
              d="M237.561,291.042c0,0-3.845-0.604-4.151,3.27c0,0,0,0.444-0.019,1.058   c-0.475-0.225-0.993-0.371-1.553-0.371c-2.032,0-3.679,1.647-3.679,3.679c0,2.032,1.647,3.679,3.679,3.679   c0.161,0,0.299-0.072,0.455-0.092c-0.547,1.753-1.418,3.35-2.64,4.504h-4.911c-1.292-1.431-1.684-4.229-1.768-6.257   c0.079,0.006,0.139,0.06,0.221,0.06c1.667,0,3.019-1.352,3.019-3.019c0-1.646-1.322-2.975-2.961-3.007   c0.261-0.447,0.451-0.937,0.451-1.492c0-1.667-1.351-3.019-3.019-3.019c-1.667,0-3.019,1.352-3.019,3.019   c0,0.554,0.19,1.045,0.451,1.492c-1.639,0.033-2.96,1.361-2.96,3.007c0,1.667,1.352,3.019,3.019,3.019   c0.081,0,0.141-0.055,0.22-0.06c-0.083,2.028-0.476,4.827-1.768,6.257h-4.911c-1.222-1.153-2.093-2.751-2.64-4.504   c0.156,0.02,0.294,0.092,0.455,0.092c2.032,0,3.679-1.647,3.679-3.679c0-2.032-1.647-3.679-3.679-3.679   c-0.56,0-1.078,0.147-1.553,0.371c-0.019-0.615-0.019-1.058-0.019-1.058c-0.306-3.874-4.151-3.27-4.151-3.27   c2.39,7.296,1.761,15.727,1.761,15.727v7.417h30.188v-7.401l0.043-0.016C235.8,306.769,235.171,298.338,237.561,291.042z"/>
        <path style="fill:#FFE15A;"
              d="M308.118,291.042c0,0-3.845-0.604-4.151,3.27c0,0,0,0.444-0.019,1.058   c-0.475-0.225-0.993-0.371-1.553-0.371c-2.032,0-3.679,1.647-3.679,3.679c0,2.032,1.647,3.679,3.679,3.679   c0.161,0,0.299-0.072,0.455-0.092c-0.547,1.753-1.418,3.35-2.64,4.504h-4.911c-1.292-1.431-1.684-4.229-1.768-6.257   c0.079,0.006,0.139,0.06,0.221,0.06c1.667,0,3.019-1.352,3.019-3.019c0-1.646-1.322-2.975-2.961-3.007   c0.261-0.447,0.451-0.937,0.451-1.492c0-1.667-1.351-3.019-3.019-3.019c-1.667,0-3.019,1.352-3.019,3.019   c0,0.554,0.19,1.045,0.451,1.492c-1.639,0.033-2.96,1.361-2.96,3.007c0,1.667,1.352,3.019,3.019,3.019   c0.081,0,0.141-0.055,0.22-0.06c-0.083,2.028-0.476,4.827-1.768,6.257h-4.911c-1.222-1.153-2.093-2.751-2.64-4.504   c0.156,0.02,0.294,0.092,0.455,0.092c2.032,0,3.679-1.647,3.679-3.679c0-2.032-1.647-3.679-3.679-3.679   c-0.561,0-1.078,0.147-1.553,0.371c-0.019-0.615-0.019-1.058-0.019-1.058c-0.306-3.874-4.151-3.27-4.151-3.27   c2.39,7.296,1.761,15.727,1.761,15.727v7.417h30.188v-7.401l0.043-0.016C306.357,306.769,305.727,298.338,308.118,291.042z"/>
        <path style="fill:#FFE15A;"
              d="M367.631,102.135c-4.139-1.643-8.304-3.191-12.494-4.645c-1.172,3.398-2.344,6.795-3.516,10.192   c-2.02-0.7-4.047-1.381-6.079-2.036c1.098-3.423,2.195-6.845,3.292-10.268c-4.213-1.36-8.448-2.624-12.702-3.792   c-0.948,3.467-1.894,6.934-2.842,10.402c-2.051-0.564-4.108-1.104-6.169-1.623c0.872-3.488,1.743-6.975,2.615-10.462   c-4.273-1.074-8.564-2.054-12.869-2.94c-1.439,7.043-2.879,14.088-4.318,21.132c2.666,0.549,5.327,1.135,7.981,1.762   c-0.548,2.333-1.095,4.666-1.642,7c-15.517-3.664-31.275-5.953-47.094-6.868c0.138-2.393,0.275-4.785,0.413-7.179   c2.705,0.156,5.409,0.353,8.11,0.587c0.619-7.162,1.239-14.327,1.859-21.491c-4.361-0.379-8.728-0.664-13.097-0.853   c-0.155,3.592-0.31,7.183-0.465,10.775c-2.107-0.091-4.216-0.16-6.324-0.205c0.077-3.594,0.155-7.19,0.233-10.783   c-4.372-0.095-8.746-0.095-13.119,0c0.078,3.593,0.155,7.189,0.233,10.783c-2.109,0.046-4.217,0.114-6.324,0.205   c-0.155-3.592-0.31-7.183-0.465-10.775c-4.37,0.189-8.737,0.473-13.097,0.853c0.62,7.163,1.239,14.327,1.858,21.491   c2.701-0.234,5.404-0.431,8.11-0.587c0.138,2.394,0.276,4.786,0.413,7.179c-15.819,0.915-31.577,3.205-47.094,6.868   c-0.548-2.333-1.095-4.666-1.642-7c2.654-0.628,5.314-1.214,7.981-1.762c-1.439-7.044-2.879-14.089-4.318-21.132   c-4.305,0.885-8.595,1.864-12.869,2.94c0.872,3.487,1.743,6.975,2.615,10.462c-2.061,0.519-4.117,1.059-6.169,1.623   c-0.947-3.468-1.894-6.935-2.842-10.402c-4.255,1.17-8.49,2.434-12.702,3.792c1.097,3.423,2.195,6.845,3.292,10.268   c-2.032,0.656-4.058,1.335-6.079,2.036c-1.172-3.398-2.344-6.795-3.516-10.192c-4.19,1.454-8.355,3.003-12.494,4.645   c2.639,6.685,5.278,13.372,7.917,20.056c2.564-1.017,5.138-1.997,7.723-2.936c3.257,9.014,6.514,18.025,9.77,27.04   c6.966-2.533,14.015-4.749,21.127-6.646c2.371-0.632,4.748-1.232,7.132-1.794c14.302-3.376,28.827-5.488,43.407-6.33   c9.72-0.563,19.464-0.561,29.185,0c14.58,0.843,29.105,2.954,43.407,6.33c2.384,0.564,4.761,1.16,7.132,1.794   c7.112,1.899,14.161,4.115,21.127,6.646c3.257-9.015,6.514-18.026,9.77-27.04c2.585,0.939,5.16,1.919,7.723,2.936   C362.353,115.506,364.992,108.82,367.631,102.135z"/>
</g>
    <path style="fill:#FFE1CD;"
          d="M255.963,444.632c42.895,0,82.609-13.774,115.048-37.067v-47.061  c-29.35,29.719-70.078,48.176-115.048,48.176c-45.593,0-86.811-18.987-116.246-49.433v47.465  C172.371,430.529,212.541,444.632,255.963,444.632z"/>
    <g>
</g>
    <g>
</g>
    <g>
</g>
    <g>
</g>
    <g>
</g>
    <g>
</g>
    <g>
</g>
    <g>
</g>
    <g>
</g>
    <g>
</g>
    <g>
</g>
    <g>
</g>
    <g>
</g>
    <g>
</g>
    <g>
</g>
</svg>
