<?xml version="1.0" encoding="iso-8859-1"?>
<!-- Generator: Adobe Illustrator 19.0.0, SVG Export Plug-In . SVG Version: 6.00 Build 0)  -->
<svg xmlns="http://www.w3.org/2000/svg" xmlns:xlink="http://www.w3.org/1999/xlink" version="1.1" id="Layer_1" x="0px"
     y="0px" viewBox="0 0 512 512" style="enable-background:new 0 0 512 512;" xml:space="preserve">
<rect style="fill:#3CC8FF;" width="512" height="512"/>
    <polygon style="fill:#464655;" points="256,114.759 132.414,397.241 379.586,397.241 "/>
    <path style="fill:#F5F5F5;"
          d="M256,158.807l96.591,220.78H159.409L256,158.807 M256,114.759L132.414,397.241h247.172L256,114.759  L256,114.759z"/>
    <polygon style="fill:#FFE15A;" points="132.414,397.241 256,256 379.586,397.241 "/>
    <g>
</g>
    <g>
</g>
    <g>
</g>
    <g>
</g>
    <g>
</g>
    <g>
</g>
    <g>
</g>
    <g>
</g>
    <g>
</g>
    <g>
</g>
    <g>
</g>
    <g>
</g>
    <g>
</g>
    <g>
</g>
    <g>
</g>
</svg>
