<?xml version="1.0" encoding="iso-8859-1"?>
<!-- Generator: Adobe Illustrator 19.0.0, SVG Export Plug-In . SVG Version: 6.00 Build 0)  -->
<svg xmlns="http://www.w3.org/2000/svg" xmlns:xlink="http://www.w3.org/1999/xlink" version="1.1" id="Layer_1" x="0px"
     y="0px" viewBox="0 0 512 512" style="enable-background:new 0 0 512 512;" xml:space="preserve">
<rect style="fill:#41479B;" width="512" height="512"/>
    <g>
	<path style="fill:#F5F5F5;"
          d="M396.582,252.895l-36.473-8.105c-5.239-48.86-44.034-87.638-92.895-92.88l-8.109-36.491   c-0.646-2.906-5.564-2.906-6.21,0l-8.09,36.405c-48.881,5.228-87.671,44.09-92.912,92.966l-36.475,8.105   c-1.453,0.323-2.49,1.615-2.49,3.105s1.037,2.782,2.49,3.105l36.476,8.106c5.24,48.868,44.031,87.686,92.901,92.921l8.1,36.45   c0.323,1.453,1.615,2.49,3.105,2.49c1.49,0,2.782-1.037,3.105-2.49l8.112-36.506c48.856-5.243,87.652-44.007,92.891-92.866   l36.474-8.105c1.453-0.323,2.49-1.615,2.49-3.105S398.035,253.218,396.582,252.895z M353.672,243.359l-69.571-15.46l-15.451-69.533   C312.881,164.073,347.974,199.126,353.672,243.359z M243.354,158.355L227.9,227.9l-69.549,15.455   C164.054,199.126,199.124,164.059,243.354,158.355z M229.553,234.049L251.504,256H130.762L229.553,234.049z M158.351,268.645   l69.548,15.455l15.458,69.563C199.124,347.964,164.054,312.877,158.351,268.645z M256,381.238l-21.951-98.79L256,260.496V381.238z    M256,251.504V130.762l21.951,98.79L256,251.504z M268.661,353.58l15.44-69.48l69.57-15.46   C347.971,312.864,312.882,347.867,268.661,353.58z M282.447,277.951L260.496,256h120.742L282.447,277.951z"/>
        <path style="fill:#F5F5F5;"
              d="M92.707,259.179H28.593c-0.633,0-1.145-1.422-1.145-3.179s0.512-3.179,1.145-3.179h64.114   c0.633,0,1.145,1.422,1.145,3.179S93.34,259.179,92.707,259.179z"/>
        <path style="fill:#F5F5F5;"
              d="M480.049,259.179h-60.815c-0.6,0-1.086-1.422-1.086-3.179s0.486-3.179,1.086-3.179h60.815   c0.6,0,1.086,1.422,1.086,3.179S480.65,259.179,480.049,259.179z"/>
        <path style="fill:#F5F5F5;"
              d="M256,93.852c-1.757,0-3.179-1.422-3.179-3.179v-50.87c0-1.757,1.422-3.179,3.179-3.179   c1.757,0,3.179,1.422,3.179,3.179v50.87C259.179,92.43,257.757,93.852,256,93.852z"/>
        <path style="fill:#F5F5F5;"
              d="M256,475.377c-1.757,0-3.179-1.422-3.179-3.179v-50.87c0-1.757,1.422-3.179,3.179-3.179   c1.757,0,3.179,1.422,3.179,3.179v50.87C259.179,473.955,257.757,475.377,256,475.377z"/>
</g>
    <g>
</g>
    <g>
</g>
    <g>
</g>
    <g>
</g>
    <g>
</g>
    <g>
</g>
    <g>
</g>
    <g>
</g>
    <g>
</g>
    <g>
</g>
    <g>
</g>
    <g>
</g>
    <g>
</g>
    <g>
</g>
    <g>
</g>
</svg>
