<?xml version="1.0" encoding="iso-8859-1"?>
<!-- Generator: Adobe Illustrator 19.0.0, SVG Export Plug-In . SVG Version: 6.00 Build 0)  -->
<svg xmlns="http://www.w3.org/2000/svg" xmlns:xlink="http://www.w3.org/1999/xlink" version="1.1" id="Layer_1" x="0px"
     y="0px" viewBox="0 0 512 512" style="enable-background:new 0 0 512 512;" xml:space="preserve">
<rect style="fill:#F5F5F5;" width="512" height="512"/>
    <g>
	<polygon style="fill:#FF4B55;"
             points="512,215.579 296.421,215.579 296.421,0 215.579,0 215.579,215.579 0,215.579 0,296.421    215.579,296.421 215.579,512 296.421,512 296.421,296.421 512,296.421  "/>
        <path style="fill:#FF4B55;"
              d="M160,89.376c-13.345,1.342-26.42,2.687-39.513,4.032c1.345-13.095,2.69-26.17,4.033-39.513   c-12.239,1.583-24.589,1.583-36.828,0c1.342,13.345,2.687,26.42,4.033,39.513c-13.094-1.345-26.17-2.689-39.514-4.032   c1.583,12.237,1.583,24.589,0,36.826c13.345-1.342,26.42-2.687,39.514-4.032c-1.346,13.095-2.691,26.17-4.033,39.513   c12.239-1.583,24.589-1.583,36.828,0c-1.343-13.345-2.688-26.42-4.033-39.513c13.094,1.345,26.17,2.689,39.513,4.032   C158.417,113.966,158.417,101.613,160,89.376z"/>
        <path style="fill:#FF4B55;"
              d="M461,89.376c-13.345,1.342-26.42,2.687-39.513,4.032c1.345-13.095,2.69-26.17,4.033-39.513   c-12.239,1.583-24.589,1.583-36.828,0c1.342,13.345,2.687,26.42,4.033,39.513c-13.094-1.345-26.17-2.689-39.514-4.032   c1.583,12.237,1.583,24.589,0,36.826c13.345-1.342,26.42-2.687,39.514-4.032c-1.346,13.095-2.691,26.17-4.033,39.513   c12.239-1.583,24.589-1.583,36.828,0c-1.343-13.345-2.688-26.42-4.033-39.513c13.094,1.345,26.17,2.689,39.513,4.032   C459.417,113.966,459.417,101.613,461,89.376z"/>
        <path style="fill:#FF4B55;"
              d="M160,385.797c-13.345,1.342-26.42,2.687-39.513,4.032c1.345-13.095,2.69-26.17,4.033-39.513   c-12.239,1.583-24.589,1.583-36.828,0c1.342,13.345,2.687,26.42,4.033,39.513c-13.094-1.345-26.17-2.689-39.514-4.032   c1.583,12.237,1.583,24.589,0,36.826c13.345-1.342,26.42-2.687,39.514-4.032c-1.346,13.095-2.691,26.17-4.033,39.513   c12.239-1.583,24.589-1.583,36.828,0c-1.343-13.345-2.688-26.42-4.033-39.513c13.094,1.345,26.17,2.689,39.513,4.032   C158.417,410.387,158.417,398.034,160,385.797z"/>
        <path style="fill:#FF4B55;"
              d="M461,385.797c-13.345,1.342-26.42,2.687-39.513,4.032c1.345-13.095,2.69-26.17,4.033-39.513   c-12.239,1.583-24.589,1.583-36.828,0c1.342,13.345,2.687,26.42,4.033,39.513c-13.094-1.345-26.17-2.689-39.514-4.032   c1.583,12.237,1.583,24.589,0,36.826c13.345-1.342,26.42-2.687,39.514-4.032c-1.346,13.095-2.691,26.17-4.033,39.513   c12.239-1.583,24.589-1.583,36.828,0c-1.343-13.345-2.688-26.42-4.033-39.513c13.094,1.345,26.17,2.689,39.513,4.032   C459.417,410.387,459.417,398.034,461,385.797z"/>
</g>
    <g>
</g>
    <g>
</g>
    <g>
</g>
    <g>
</g>
    <g>
</g>
    <g>
</g>
    <g>
</g>
    <g>
</g>
    <g>
</g>
    <g>
</g>
    <g>
</g>
    <g>
</g>
    <g>
</g>
    <g>
</g>
    <g>
</g>
</svg>
