<?xml version="1.0" encoding="UTF-8"?>
<svg width="24px" height="24px" viewBox="0 0 24 24" version="1.1" xmlns="http://www.w3.org/2000/svg"
     xmlns:xlink="http://www.w3.org/1999/xlink">
    <!-- Generator: Sketch 50.2 (55047) - http://www.bohemiancoding.com/sketch -->
    <title>Stockholm-icons / Weather / Moon</title>
    <desc>Created with Sketch.</desc>
    <defs></defs>
    <g id="Stockholm-icons-/-Weather-/-Moon" stroke="none" stroke-width="1" fill="none" fill-rule="evenodd">
        <rect id="bound" x="0" y="0" width="24" height="24"></rect>
        <path
            d="M12.0700837,4.0003006 C11.3895108,5.17692613 11,6.54297551 11,8 C11,12.3948932 14.5439081,15.9620623 18.9299163,15.9996994 C17.5467214,18.3910707 14.9612535,20 12,20 C7.581722,20 4,16.418278 4,12 C4,7.581722 7.581722,4 12,4 C12.0233848,4 12.0467462,4.00010034 12.0700837,4.0003006 Z"
            id="Combined-Shape" fill="#000000"></path>
    </g>
</svg>
